﻿


EVENT   1
 PAGE   1
  // condition: switch 2278 is ON
  241(bytes(0x04,0x08,0x6f,0x3a,0x0d,0x52,0x50,0x47,0x3a,0x3a,0x42,0x47,0x4d,0x08,0x3a,0x0a,0x40,0x6e,0x61,0x6d,0x65,0x49,0x22,0x10,0x73,0x63,0x65,0x6e,0x65,0x5f,0x63,0x6f,0x6d,0x69,0x32,0x06,0x3a,0x06,0x45,0x54,0x3a,0x0c,0x40,0x76,0x6f,0x6c,0x75,0x6d,0x65,0x69,0x69,0x3a,0x0b,0x40,0x70,0x69,0x74,0x63,0x68,0x69,0x69))
  ShowMessageFace("ruka_fc1",0,0,2,1)
  ShowMessage("\\n<ルカ>……………………")
  If(0,6,0)
   ShowMessageFace("sonia_fc4",0,0,2,2)
   ShowMessage("\\n<ソニア>……………………")
   0()
  EndIf()
  ShowMessageFace("elfhime_fc1",0,0,2,3)
  ShowMessage("\\n<エルフ姫>……………………")
  ChangeVariable(11,11,0,3,5,34,1)
  If(1,11,0,29,5)
   TeleportEvent(34,0,46,29,4)
   0()
  EndIf()
  205(34,bytes(0x04,0x08,0x6f,0x3a,0x13,0x52,0x50,0x47,0x3a,0x3a,0x4d,0x6f,0x76,0x65,0x52,0x6f,0x75,0x74,0x65,0x09,0x3a,0x0c,0x40,0x72,0x65,0x70,0x65,0x61,0x74,0x46,0x3a,0x0f,0x40,0x73,0x6b,0x69,0x70,0x70,0x61,0x62,0x6c,0x65,0x46,0x3a,0x0a,0x40,0x77,0x61,0x69,0x74,0x54,0x3a,0x0a,0x40,0x6c,0x69,0x73,0x74,0x5b,0x0a,0x6f,0x3a,0x15,0x52,0x50,0x47,0x3a,0x3a,0x4d,0x6f,0x76,0x65,0x43,0x6f,0x6d,0x6d,0x61,0x6e,0x64,0x07,0x3a,0x0a,0x40,0x63,0x6f,0x64,0x65,0x69,0x06,0x3a,0x10,0x40,0x70,0x61,0x72,0x61,0x6d,0x65,0x74,0x65,0x72,0x73,0x5b,0x00,0x6f,0x3b,0x0a,0x07,0x3b,0x0b,0x69,0x06,0x3b,0x0c,0x5b,0x00,0x6f,0x3b,0x0a,0x07,0x3b,0x0b,0x69,0x06,0x3b,0x0c,0x5b,0x00,0x6f,0x3b,0x0a,0x07,0x3b,0x0b,0x69,0x16,0x3b,0x0c,0x5b,0x00,0x6f,0x3b,0x0a,0x07,0x3b,0x0b,0x69,0x00,0x3b,0x0c,0x5b,0x00))
  Wait(60)
  205(34,bytes(0x04,0x08,0x6f,0x3a,0x13,0x52,0x50,0x47,0x3a,0x3a,0x4d,0x6f,0x76,0x65,0x52,0x6f,0x75,0x74,0x65,0x09,0x3a,0x0c,0x40,0x72,0x65,0x70,0x65,0x61,0x74,0x46,0x3a,0x0f,0x40,0x73,0x6b,0x69,0x70,0x70,0x61,0x62,0x6c,0x65,0x54,0x3a,0x0a,0x40,0x77,0x61,0x69,0x74,0x46,0x3a,0x0a,0x40,0x6c,0x69,0x73,0x74,0x5b,0x0a,0x6f,0x3a,0x15,0x52,0x50,0x47,0x3a,0x3a,0x4d,0x6f,0x76,0x65,0x43,0x6f,0x6d,0x6d,0x61,0x6e,0x64,0x07,0x3a,0x0a,0x40,0x63,0x6f,0x64,0x65,0x69,0x09,0x3a,0x10,0x40,0x70,0x61,0x72,0x61,0x6d,0x65,0x74,0x65,0x72,0x73,0x5b,0x00,0x6f,0x3b,0x0a,0x07,0x3b,0x0b,0x69,0x09,0x3b,0x0c,0x5b,0x00,0x6f,0x3b,0x0a,0x07,0x3b,0x0b,0x69,0x09,0x3b,0x0c,0x5b,0x00,0x6f,0x3b,0x0a,0x07,0x3b,0x0b,0x69,0x16,0x3b,0x0c,0x5b,0x00,0x6f,0x3b,0x0a,0x07,0x3b,0x0b,0x69,0x00,0x3b,0x0c,0x5b,0x00))
  ShowMessageFace("kunoitielf2_fc2",1,0,2,4)
  ShowMessage("\\n<エルフ側近>姫は「お会いできて光栄だ」と仰せです。")
  ShowMessageFace("ruka_fc1",0,0,2,5)
  ShowMessage("\\n<ルカ>は、はい……どうも……")
  If(0,4,0)
   ShowMessageFace("alice_fc5",5,0,2,6)
   ShowMessage("\\n<アリス>屏風の陰から出てきたらどうだ……？")
   0()
  EndIf()
  If(0,5,0)
   ShowMessageFace("iriasu_fc4",2,0,2,7)
   ShowMessage("\\n<イリアス>屏風の陰から出てきてはどうです……？")
   0()
  EndIf()
  ShowMessageFace("elfhime_fc1",0,0,2,8)
  ShowMessage("\\n<エルフ姫>……………………")
  ChangeVariable(11,11,0,3,5,34,1)
  If(1,11,0,29,5)
   TeleportEvent(34,0,46,29,4)
   0()
  EndIf()
  205(34,bytes(0x04,0x08,0x6f,0x3a,0x13,0x52,0x50,0x47,0x3a,0x3a,0x4d,0x6f,0x76,0x65,0x52,0x6f,0x75,0x74,0x65,0x09,0x3a,0x0c,0x40,0x72,0x65,0x70,0x65,0x61,0x74,0x46,0x3a,0x0f,0x40,0x73,0x6b,0x69,0x70,0x70,0x61,0x62,0x6c,0x65,0x46,0x3a,0x0a,0x40,0x77,0x61,0x69,0x74,0x54,0x3a,0x0a,0x40,0x6c,0x69,0x73,0x74,0x5b,0x0a,0x6f,0x3a,0x15,0x52,0x50,0x47,0x3a,0x3a,0x4d,0x6f,0x76,0x65,0x43,0x6f,0x6d,0x6d,0x61,0x6e,0x64,0x07,0x3a,0x0a,0x40,0x63,0x6f,0x64,0x65,0x69,0x06,0x3a,0x10,0x40,0x70,0x61,0x72,0x61,0x6d,0x65,0x74,0x65,0x72,0x73,0x5b,0x00,0x6f,0x3b,0x0a,0x07,0x3b,0x0b,0x69,0x06,0x3b,0x0c,0x5b,0x00,0x6f,0x3b,0x0a,0x07,0x3b,0x0b,0x69,0x06,0x3b,0x0c,0x5b,0x00,0x6f,0x3b,0x0a,0x07,0x3b,0x0b,0x69,0x16,0x3b,0x0c,0x5b,0x00,0x6f,0x3b,0x0a,0x07,0x3b,0x0b,0x69,0x00,0x3b,0x0c,0x5b,0x00))
  Wait(60)
  205(34,bytes(0x04,0x08,0x6f,0x3a,0x13,0x52,0x50,0x47,0x3a,0x3a,0x4d,0x6f,0x76,0x65,0x52,0x6f,0x75,0x74,0x65,0x09,0x3a,0x0c,0x40,0x72,0x65,0x70,0x65,0x61,0x74,0x46,0x3a,0x0f,0x40,0x73,0x6b,0x69,0x70,0x70,0x61,0x62,0x6c,0x65,0x54,0x3a,0x0a,0x40,0x77,0x61,0x69,0x74,0x46,0x3a,0x0a,0x40,0x6c,0x69,0x73,0x74,0x5b,0x0a,0x6f,0x3a,0x15,0x52,0x50,0x47,0x3a,0x3a,0x4d,0x6f,0x76,0x65,0x43,0x6f,0x6d,0x6d,0x61,0x6e,0x64,0x07,0x3a,0x0a,0x40,0x63,0x6f,0x64,0x65,0x69,0x09,0x3a,0x10,0x40,0x70,0x61,0x72,0x61,0x6d,0x65,0x74,0x65,0x72,0x73,0x5b,0x00,0x6f,0x3b,0x0a,0x07,0x3b,0x0b,0x69,0x09,0x3b,0x0c,0x5b,0x00,0x6f,0x3b,0x0a,0x07,0x3b,0x0b,0x69,0x09,0x3b,0x0c,0x5b,0x00,0x6f,0x3b,0x0a,0x07,0x3b,0x0b,0x69,0x16,0x3b,0x0c,0x5b,0x00,0x6f,0x3b,0x0a,0x07,0x3b,0x0b,0x69,0x00,0x3b,0x0c,0x5b,0x00))
  ShowMessageFace("kunoitielf2_fc2",1,0,2,9)
  ShowMessage("\\n<エルフ側近>「とてもあなたを気に入った」と、姫は仰せです。")
  ShowMessageFace("ruka_fc1",0,0,2,10)
  ShowMessage("\\n<ルカ>それは……光栄です……")
  ShowMessageFace("elfhime_fc1",0,0,2,11)
  ShowMessage("\\n<エルフ姫>……………………")
  ChangeVariable(11,11,0,3,5,34,1)
  If(1,11,0,29,5)
   TeleportEvent(34,0,46,29,4)
   0()
  EndIf()
  205(34,bytes(0x04,0x08,0x6f,0x3a,0x13,0x52,0x50,0x47,0x3a,0x3a,0x4d,0x6f,0x76,0x65,0x52,0x6f,0x75,0x74,0x65,0x09,0x3a,0x0c,0x40,0x72,0x65,0x70,0x65,0x61,0x74,0x46,0x3a,0x0f,0x40,0x73,0x6b,0x69,0x70,0x70,0x61,0x62,0x6c,0x65,0x46,0x3a,0x0a,0x40,0x77,0x61,0x69,0x74,0x54,0x3a,0x0a,0x40,0x6c,0x69,0x73,0x74,0x5b,0x0a,0x6f,0x3a,0x15,0x52,0x50,0x47,0x3a,0x3a,0x4d,0x6f,0x76,0x65,0x43,0x6f,0x6d,0x6d,0x61,0x6e,0x64,0x07,0x3a,0x0a,0x40,0x63,0x6f,0x64,0x65,0x69,0x06,0x3a,0x10,0x40,0x70,0x61,0x72,0x61,0x6d,0x65,0x74,0x65,0x72,0x73,0x5b,0x00,0x6f,0x3b,0x0a,0x07,0x3b,0x0b,0x69,0x06,0x3b,0x0c,0x5b,0x00,0x6f,0x3b,0x0a,0x07,0x3b,0x0b,0x69,0x06,0x3b,0x0c,0x5b,0x00,0x6f,0x3b,0x0a,0x07,0x3b,0x0b,0x69,0x16,0x3b,0x0c,0x5b,0x00,0x6f,0x3b,0x0a,0x07,0x3b,0x0b,0x69,0x00,0x3b,0x0c,0x5b,0x00))
  Wait(60)
  205(34,bytes(0x04,0x08,0x6f,0x3a,0x13,0x52,0x50,0x47,0x3a,0x3a,0x4d,0x6f,0x76,0x65,0x52,0x6f,0x75,0x74,0x65,0x09,0x3a,0x0c,0x40,0x72,0x65,0x70,0x65,0x61,0x74,0x46,0x3a,0x0f,0x40,0x73,0x6b,0x69,0x70,0x70,0x61,0x62,0x6c,0x65,0x54,0x3a,0x0a,0x40,0x77,0x61,0x69,0x74,0x46,0x3a,0x0a,0x40,0x6c,0x69,0x73,0x74,0x5b,0x0a,0x6f,0x3a,0x15,0x52,0x50,0x47,0x3a,0x3a,0x4d,0x6f,0x76,0x65,0x43,0x6f,0x6d,0x6d,0x61,0x6e,0x64,0x07,0x3a,0x0a,0x40,0x63,0x6f,0x64,0x65,0x69,0x09,0x3a,0x10,0x40,0x70,0x61,0x72,0x61,0x6d,0x65,0x74,0x65,0x72,0x73,0x5b,0x00,0x6f,0x3b,0x0a,0x07,0x3b,0x0b,0x69,0x09,0x3b,0x0c,0x5b,0x00,0x6f,0x3b,0x0a,0x07,0x3b,0x0b,0x69,0x09,0x3b,0x0c,0x5b,0x00,0x6f,0x3b,0x0a,0x07,0x3b,0x0b,0x69,0x16,0x3b,0x0c,0x5b,0x00,0x6f,0x3b,0x0a,0x07,0x3b,0x0b,0x69,0x00,0x3b,0x0c,0x5b,0x00))
  ShowMessageFace("kunoitielf2_fc2",1,0,2,12)
  ShowMessage("\\n<エルフ側近>姫は「お近づきの証にこれを」と仰せです。")
  ShowMessage("どうぞ、お受け取りを……")
  250(bytes(0x04,0x08,0x6f,0x3a,0x0c,0x52,0x50,0x47,0x3a,0x3a,0x53,0x45,0x08,0x3a,0x0a,0x40,0x6e,0x61,0x6d,0x65,0x49,0x22,0x0a,0x49,0x74,0x65,0x6d,0x31,0x06,0x3a,0x06,0x45,0x54,0x3a,0x0b,0x40,0x70,0x69,0x74,0x63,0x68,0x69,0x69,0x3a,0x0c,0x40,0x76,0x6f,0x6c,0x75,0x6d,0x65,0x69,0x55))
  ChangeInventory_Item(537,0,0,1)
  If(0,6,0)
   ShowMessageFace("sonia_fc2",2,0,2,13)
   ShowMessage("\\n<ソニア>ちょっと、こんな簡単にもらっていいの……？")
   0()
  Else()
   ShowMessageFace("ruka_fc1",0,0,2,14)
   ShowMessage("\\n<ルカ>こんなに簡単にもらっていいの……？")
   0()
  EndIf()
  ChangeVariable(11,11,0,3,5,34,1)
  If(1,11,0,29,5)
   TeleportEvent(34,0,46,29,4)
   0()
  EndIf()
  205(34,bytes(0x04,0x08,0x6f,0x3a,0x13,0x52,0x50,0x47,0x3a,0x3a,0x4d,0x6f,0x76,0x65,0x52,0x6f,0x75,0x74,0x65,0x09,0x3a,0x0c,0x40,0x72,0x65,0x70,0x65,0x61,0x74,0x46,0x3a,0x0f,0x40,0x73,0x6b,0x69,0x70,0x70,0x61,0x62,0x6c,0x65,0x46,0x3a,0x0a,0x40,0x77,0x61,0x69,0x74,0x54,0x3a,0x0a,0x40,0x6c,0x69,0x73,0x74,0x5b,0x0a,0x6f,0x3a,0x15,0x52,0x50,0x47,0x3a,0x3a,0x4d,0x6f,0x76,0x65,0x43,0x6f,0x6d,0x6d,0x61,0x6e,0x64,0x07,0x3a,0x0a,0x40,0x63,0x6f,0x64,0x65,0x69,0x06,0x3a,0x10,0x40,0x70,0x61,0x72,0x61,0x6d,0x65,0x74,0x65,0x72,0x73,0x5b,0x00,0x6f,0x3b,0x0a,0x07,0x3b,0x0b,0x69,0x06,0x3b,0x0c,0x5b,0x00,0x6f,0x3b,0x0a,0x07,0x3b,0x0b,0x69,0x06,0x3b,0x0c,0x5b,0x00,0x6f,0x3b,0x0a,0x07,0x3b,0x0b,0x69,0x16,0x3b,0x0c,0x5b,0x00,0x6f,0x3b,0x0a,0x07,0x3b,0x0b,0x69,0x00,0x3b,0x0c,0x5b,0x00))
  Wait(60)
  205(34,bytes(0x04,0x08,0x6f,0x3a,0x13,0x52,0x50,0x47,0x3a,0x3a,0x4d,0x6f,0x76,0x65,0x52,0x6f,0x75,0x74,0x65,0x09,0x3a,0x0c,0x40,0x72,0x65,0x70,0x65,0x61,0x74,0x46,0x3a,0x0f,0x40,0x73,0x6b,0x69,0x70,0x70,0x61,0x62,0x6c,0x65,0x54,0x3a,0x0a,0x40,0x77,0x61,0x69,0x74,0x46,0x3a,0x0a,0x40,0x6c,0x69,0x73,0x74,0x5b,0x0a,0x6f,0x3a,0x15,0x52,0x50,0x47,0x3a,0x3a,0x4d,0x6f,0x76,0x65,0x43,0x6f,0x6d,0x6d,0x61,0x6e,0x64,0x07,0x3a,0x0a,0x40,0x63,0x6f,0x64,0x65,0x69,0x09,0x3a,0x10,0x40,0x70,0x61,0x72,0x61,0x6d,0x65,0x74,0x65,0x72,0x73,0x5b,0x00,0x6f,0x3b,0x0a,0x07,0x3b,0x0b,0x69,0x09,0x3b,0x0c,0x5b,0x00,0x6f,0x3b,0x0a,0x07,0x3b,0x0b,0x69,0x09,0x3b,0x0c,0x5b,0x00,0x6f,0x3b,0x0a,0x07,0x3b,0x0b,0x69,0x16,0x3b,0x0c,0x5b,0x00,0x6f,0x3b,0x0a,0x07,0x3b,0x0b,0x69,0x00,0x3b,0x0c,0x5b,0x00))
  ShowMessageFace("kunoitielf2_fc2",1,0,2,15)
  ShowMessage("\\n<エルフ側近>並びに姫は、里に伝わる秘宝を送られるそうです。")
  ShowMessage("伝説の七刀にも数えられし名刀「夢幻」、お受け取り下さい。")
  250(bytes(0x04,0x08,0x6f,0x3a,0x0c,0x52,0x50,0x47,0x3a,0x3a,0x53,0x45,0x08,0x3a,0x0a,0x40,0x6e,0x61,0x6d,0x65,0x49,0x22,0x0a,0x49,0x74,0x65,0x6d,0x31,0x06,0x3a,0x06,0x45,0x54,0x3a,0x0b,0x40,0x70,0x69,0x74,0x63,0x68,0x69,0x69,0x3a,0x0c,0x40,0x76,0x6f,0x6c,0x75,0x6d,0x65,0x69,0x55))
  ChangeInventoryWeapon(255,0,0,1,false)
  If(0,6,0)
   ShowMessageFace("sonia_fc2",3,0,2,16)
   ShowMessage("\\n<ソニア>えっ？　これ、逆にまずいんじゃない……？")
   0()
  Else()
   ShowMessageFace("ruka_fc1",0,0,2,17)
   ShowMessage("\\n<ルカ>これ、もらいすぎじゃ……")
   0()
  EndIf()
  ChangeVariable(11,11,0,3,5,34,1)
  If(1,11,0,29,5)
   TeleportEvent(34,0,46,29,4)
   0()
  EndIf()
  205(34,bytes(0x04,0x08,0x6f,0x3a,0x13,0x52,0x50,0x47,0x3a,0x3a,0x4d,0x6f,0x76,0x65,0x52,0x6f,0x75,0x74,0x65,0x09,0x3a,0x0c,0x40,0x72,0x65,0x70,0x65,0x61,0x74,0x46,0x3a,0x0f,0x40,0x73,0x6b,0x69,0x70,0x70,0x61,0x62,0x6c,0x65,0x46,0x3a,0x0a,0x40,0x77,0x61,0x69,0x74,0x54,0x3a,0x0a,0x40,0x6c,0x69,0x73,0x74,0x5b,0x0a,0x6f,0x3a,0x15,0x52,0x50,0x47,0x3a,0x3a,0x4d,0x6f,0x76,0x65,0x43,0x6f,0x6d,0x6d,0x61,0x6e,0x64,0x07,0x3a,0x0a,0x40,0x63,0x6f,0x64,0x65,0x69,0x06,0x3a,0x10,0x40,0x70,0x61,0x72,0x61,0x6d,0x65,0x74,0x65,0x72,0x73,0x5b,0x00,0x6f,0x3b,0x0a,0x07,0x3b,0x0b,0x69,0x06,0x3b,0x0c,0x5b,0x00,0x6f,0x3b,0x0a,0x07,0x3b,0x0b,0x69,0x06,0x3b,0x0c,0x5b,0x00,0x6f,0x3b,0x0a,0x07,0x3b,0x0b,0x69,0x16,0x3b,0x0c,0x5b,0x00,0x6f,0x3b,0x0a,0x07,0x3b,0x0b,0x69,0x00,0x3b,0x0c,0x5b,0x00))
  Wait(60)
  205(34,bytes(0x04,0x08,0x6f,0x3a,0x13,0x52,0x50,0x47,0x3a,0x3a,0x4d,0x6f,0x76,0x65,0x52,0x6f,0x75,0x74,0x65,0x09,0x3a,0x0c,0x40,0x72,0x65,0x70,0x65,0x61,0x74,0x46,0x3a,0x0f,0x40,0x73,0x6b,0x69,0x70,0x70,0x61,0x62,0x6c,0x65,0x54,0x3a,0x0a,0x40,0x77,0x61,0x69,0x74,0x46,0x3a,0x0a,0x40,0x6c,0x69,0x73,0x74,0x5b,0x0a,0x6f,0x3a,0x15,0x52,0x50,0x47,0x3a,0x3a,0x4d,0x6f,0x76,0x65,0x43,0x6f,0x6d,0x6d,0x61,0x6e,0x64,0x07,0x3a,0x0a,0x40,0x63,0x6f,0x64,0x65,0x69,0x09,0x3a,0x10,0x40,0x70,0x61,0x72,0x61,0x6d,0x65,0x74,0x65,0x72,0x73,0x5b,0x00,0x6f,0x3b,0x0a,0x07,0x3b,0x0b,0x69,0x09,0x3b,0x0c,0x5b,0x00,0x6f,0x3b,0x0a,0x07,0x3b,0x0b,0x69,0x09,0x3b,0x0c,0x5b,0x00,0x6f,0x3b,0x0a,0x07,0x3b,0x0b,0x69,0x16,0x3b,0x0c,0x5b,0x00,0x6f,0x3b,0x0a,0x07,0x3b,0x0b,0x69,0x00,0x3b,0x0c,0x5b,0x00))
  ShowMessageFace("kunoitielf2_fc2",1,0,2,18)
  ShowMessage("\\n<エルフ側近>また、愛しいあなたにこの品を贈りたいとのこと。")
  ShowMessage("このアイテムがあれば、狩人系の最上級職に転職できます。")
  250(bytes(0x04,0x08,0x6f,0x3a,0x0c,0x52,0x50,0x47,0x3a,0x3a,0x53,0x45,0x08,0x3a,0x0a,0x40,0x6e,0x61,0x6d,0x65,0x49,0x22,0x0a,0x49,0x74,0x65,0x6d,0x31,0x06,0x3a,0x06,0x45,0x54,0x3a,0x0b,0x40,0x70,0x69,0x74,0x63,0x68,0x69,0x69,0x3a,0x0c,0x40,0x76,0x6f,0x6c,0x75,0x6d,0x65,0x69,0x55))
  ChangeSwitch(2311,2311,0)
  ChangeInventory_Item(627,0,0,1)
  If(0,6,0)
   ShowMessageFace("sonia_fc3",2,0,2,19)
   ShowMessage("\\n<ソニア>ちょ、ちょっと待って……！")
   0()
  Else()
   ShowMessageFace("ruka_fc1",0,0,2,20)
   ShowMessage("\\n<ルカ>ちょ、ちょっと待って……！")
   0()
  EndIf()
  ShowMessageFace("elfhime_fc1",0,0,2,21)
  ShowMessage("\\n<エルフ姫>……………………")
  ChangeVariable(11,11,0,3,5,34,1)
  If(1,11,0,29,5)
   TeleportEvent(34,0,46,29,4)
   0()
  EndIf()
  205(34,bytes(0x04,0x08,0x6f,0x3a,0x13,0x52,0x50,0x47,0x3a,0x3a,0x4d,0x6f,0x76,0x65,0x52,0x6f,0x75,0x74,0x65,0x09,0x3a,0x0c,0x40,0x72,0x65,0x70,0x65,0x61,0x74,0x46,0x3a,0x0f,0x40,0x73,0x6b,0x69,0x70,0x70,0x61,0x62,0x6c,0x65,0x46,0x3a,0x0a,0x40,0x77,0x61,0x69,0x74,0x54,0x3a,0x0a,0x40,0x6c,0x69,0x73,0x74,0x5b,0x0a,0x6f,0x3a,0x15,0x52,0x50,0x47,0x3a,0x3a,0x4d,0x6f,0x76,0x65,0x43,0x6f,0x6d,0x6d,0x61,0x6e,0x64,0x07,0x3a,0x0a,0x40,0x63,0x6f,0x64,0x65,0x69,0x06,0x3a,0x10,0x40,0x70,0x61,0x72,0x61,0x6d,0x65,0x74,0x65,0x72,0x73,0x5b,0x00,0x6f,0x3b,0x0a,0x07,0x3b,0x0b,0x69,0x06,0x3b,0x0c,0x5b,0x00,0x6f,0x3b,0x0a,0x07,0x3b,0x0b,0x69,0x06,0x3b,0x0c,0x5b,0x00,0x6f,0x3b,0x0a,0x07,0x3b,0x0b,0x69,0x16,0x3b,0x0c,0x5b,0x00,0x6f,0x3b,0x0a,0x07,0x3b,0x0b,0x69,0x00,0x3b,0x0c,0x5b,0x00))
  Wait(60)
  205(34,bytes(0x04,0x08,0x6f,0x3a,0x13,0x52,0x50,0x47,0x3a,0x3a,0x4d,0x6f,0x76,0x65,0x52,0x6f,0x75,0x74,0x65,0x09,0x3a,0x0c,0x40,0x72,0x65,0x70,0x65,0x61,0x74,0x46,0x3a,0x0f,0x40,0x73,0x6b,0x69,0x70,0x70,0x61,0x62,0x6c,0x65,0x54,0x3a,0x0a,0x40,0x77,0x61,0x69,0x74,0x46,0x3a,0x0a,0x40,0x6c,0x69,0x73,0x74,0x5b,0x0a,0x6f,0x3a,0x15,0x52,0x50,0x47,0x3a,0x3a,0x4d,0x6f,0x76,0x65,0x43,0x6f,0x6d,0x6d,0x61,0x6e,0x64,0x07,0x3a,0x0a,0x40,0x63,0x6f,0x64,0x65,0x69,0x09,0x3a,0x10,0x40,0x70,0x61,0x72,0x61,0x6d,0x65,0x74,0x65,0x72,0x73,0x5b,0x00,0x6f,0x3b,0x0a,0x07,0x3b,0x0b,0x69,0x09,0x3b,0x0c,0x5b,0x00,0x6f,0x3b,0x0a,0x07,0x3b,0x0b,0x69,0x09,0x3b,0x0c,0x5b,0x00,0x6f,0x3b,0x0a,0x07,0x3b,0x0b,0x69,0x16,0x3b,0x0c,0x5b,0x00,0x6f,0x3b,0x0a,0x07,0x3b,0x0b,0x69,0x00,0x3b,0x0c,0x5b,0x00))
  ShowMessageFace("kunoitielf2_fc2",1,0,2,22)
  ShowMessage("\\n<エルフ側近>さらに姫は、以下の品をお送りになられるようです。")
  ShowMessage("あなた様の旅のお役に立てば本望……とのこと。")
  250(bytes(0x04,0x08,0x6f,0x3a,0x0c,0x52,0x50,0x47,0x3a,0x3a,0x53,0x45,0x08,0x3a,0x0a,0x40,0x6e,0x61,0x6d,0x65,0x49,0x22,0x0a,0x49,0x74,0x65,0x6d,0x31,0x06,0x3a,0x06,0x45,0x54,0x3a,0x0b,0x40,0x70,0x69,0x74,0x63,0x68,0x69,0x69,0x3a,0x0c,0x40,0x76,0x6f,0x6c,0x75,0x6d,0x65,0x69,0x55))
  ChangeInventoryWeapon(274,0,0,1)
  ChangeInventoryWeapon(744,0,0,1,false)
  ChangeInventoryArmor(140,0,0,1,false)
  ChangeInventoryArmor(268,0,0,1,false)
  ChangeInventoryArmor(1295,0,0,1,false)
  ChangeInventoryArmor(1298,0,0,1)
  If(0,6,0)
   ShowMessageFace("sonia_fc3",2,0,2,23)
   ShowMessage("\\n<ソニア>これやばい！　絶対やばい！")
   0()
  Else()
   ShowMessageFace("ruka_fc1",0,0,2,24)
   ShowMessage("\\n<ルカ>こんなにもらうと、逆に困るよ……！")
   0()
  EndIf()
  If(0,4,0)
   ShowMessageFace("alice_fc5",6,0,2,25)
   ShowMessage("\\n<アリス>おいおい、待て待て！")
   ShowMessage("これは間違いなく、愛が重いぞ！")
   0()
  EndIf()
  If(0,5,0)
   ShowMessageFace("iriasu_fc4",5,0,2,26)
   ShowMessage("\\n<イリアス>ちょっと待ちなさい！")
   ShowMessage("これは愛が重いですよ！")
   0()
  EndIf()
  ShowMessageFace("elfhime_fc1",0,0,2,27)
  ShowMessage("\\n<エルフ姫>……………………")
  ChangeVariable(11,11,0,3,5,34,1)
  If(1,11,0,29,5)
   TeleportEvent(34,0,46,29,4)
   0()
  EndIf()
  205(34,bytes(0x04,0x08,0x6f,0x3a,0x13,0x52,0x50,0x47,0x3a,0x3a,0x4d,0x6f,0x76,0x65,0x52,0x6f,0x75,0x74,0x65,0x09,0x3a,0x0c,0x40,0x72,0x65,0x70,0x65,0x61,0x74,0x46,0x3a,0x0f,0x40,0x73,0x6b,0x69,0x70,0x70,0x61,0x62,0x6c,0x65,0x46,0x3a,0x0a,0x40,0x77,0x61,0x69,0x74,0x54,0x3a,0x0a,0x40,0x6c,0x69,0x73,0x74,0x5b,0x0a,0x6f,0x3a,0x15,0x52,0x50,0x47,0x3a,0x3a,0x4d,0x6f,0x76,0x65,0x43,0x6f,0x6d,0x6d,0x61,0x6e,0x64,0x07,0x3a,0x0a,0x40,0x63,0x6f,0x64,0x65,0x69,0x06,0x3a,0x10,0x40,0x70,0x61,0x72,0x61,0x6d,0x65,0x74,0x65,0x72,0x73,0x5b,0x00,0x6f,0x3b,0x0a,0x07,0x3b,0x0b,0x69,0x06,0x3b,0x0c,0x5b,0x00,0x6f,0x3b,0x0a,0x07,0x3b,0x0b,0x69,0x06,0x3b,0x0c,0x5b,0x00,0x6f,0x3b,0x0a,0x07,0x3b,0x0b,0x69,0x16,0x3b,0x0c,0x5b,0x00,0x6f,0x3b,0x0a,0x07,0x3b,0x0b,0x69,0x00,0x3b,0x0c,0x5b,0x00))
  Wait(60)
  205(34,bytes(0x04,0x08,0x6f,0x3a,0x13,0x52,0x50,0x47,0x3a,0x3a,0x4d,0x6f,0x76,0x65,0x52,0x6f,0x75,0x74,0x65,0x09,0x3a,0x0c,0x40,0x72,0x65,0x70,0x65,0x61,0x74,0x46,0x3a,0x0f,0x40,0x73,0x6b,0x69,0x70,0x70,0x61,0x62,0x6c,0x65,0x54,0x3a,0x0a,0x40,0x77,0x61,0x69,0x74,0x46,0x3a,0x0a,0x40,0x6c,0x69,0x73,0x74,0x5b,0x0a,0x6f,0x3a,0x15,0x52,0x50,0x47,0x3a,0x3a,0x4d,0x6f,0x76,0x65,0x43,0x6f,0x6d,0x6d,0x61,0x6e,0x64,0x07,0x3a,0x0a,0x40,0x63,0x6f,0x64,0x65,0x69,0x09,0x3a,0x10,0x40,0x70,0x61,0x72,0x61,0x6d,0x65,0x74,0x65,0x72,0x73,0x5b,0x00,0x6f,0x3b,0x0a,0x07,0x3b,0x0b,0x69,0x09,0x3b,0x0c,0x5b,0x00,0x6f,0x3b,0x0a,0x07,0x3b,0x0b,0x69,0x09,0x3b,0x0c,0x5b,0x00,0x6f,0x3b,0x0a,0x07,0x3b,0x0b,0x69,0x16,0x3b,0x0c,0x5b,0x00,0x6f,0x3b,0x0a,0x07,0x3b,0x0b,0x69,0x00,0x3b,0x0c,0x5b,0x00))
  ShowMessageFace("kunoitielf2_fc2",1,0,2,28)
  ShowMessage("\\n<エルフ側近>「気にする事はない、意中の殿方に尽くすのは当然」……")
  ShowMessage("……との事です。")
  If(0,6,0)
   ShowMessageFace("sonia_fc3",2,0,2,29)
   ShowMessage("\\n<ソニア>これはダメでしょ！　大ピンチでしょ！")
   ShowMessage("ルカ、いつもの言い寄られた時のアレの出番よ！")
   ShowMessageFace("ruka_fc1",0,0,2,30)
   ShowMessage("\\n<ルカ>えっと、まだ知り合って間もないし……")
   ShowMessage("まずは文通から始めようよ……")
   0()
  Else()
   ShowMessageFace("ruka_fc1",0,0,2,31)
   ShowMessage("\\n<ルカ>えっと、まだ知り合って間もないし……")
   ShowMessage("まずは文通から始めようよ……")
   0()
  EndIf()
  If(0,4,0)
   ShowMessageFace("alice_fc5",5,0,2,32)
   ShowMessage("\\n<アリス>文通って……")
   ShowMessage("いつの時代の人間なのだ、貴様は……")
   0()
  EndIf()
  If(0,5,0)
   ShowMessageFace("iriasu_fc4",2,0,2,33)
   ShowMessage("\\n<イリアス>文通って……")
   ShowMessage("大正の女学生ですか、あなたは。")
   0()
  EndIf()
  ShowMessageFace("elfhime_fc1",0,0,2,34)
  ShowMessage("\\n<エルフ姫>……………………")
  ChangeVariable(11,11,0,3,5,34,1)
  If(1,11,0,29,5)
   TeleportEvent(34,0,46,29,4)
   0()
  EndIf()
  205(34,bytes(0x04,0x08,0x6f,0x3a,0x13,0x52,0x50,0x47,0x3a,0x3a,0x4d,0x6f,0x76,0x65,0x52,0x6f,0x75,0x74,0x65,0x09,0x3a,0x0c,0x40,0x72,0x65,0x70,0x65,0x61,0x74,0x46,0x3a,0x0f,0x40,0x73,0x6b,0x69,0x70,0x70,0x61,0x62,0x6c,0x65,0x46,0x3a,0x0a,0x40,0x77,0x61,0x69,0x74,0x54,0x3a,0x0a,0x40,0x6c,0x69,0x73,0x74,0x5b,0x0a,0x6f,0x3a,0x15,0x52,0x50,0x47,0x3a,0x3a,0x4d,0x6f,0x76,0x65,0x43,0x6f,0x6d,0x6d,0x61,0x6e,0x64,0x07,0x3a,0x0a,0x40,0x63,0x6f,0x64,0x65,0x69,0x06,0x3a,0x10,0x40,0x70,0x61,0x72,0x61,0x6d,0x65,0x74,0x65,0x72,0x73,0x5b,0x00,0x6f,0x3b,0x0a,0x07,0x3b,0x0b,0x69,0x06,0x3b,0x0c,0x5b,0x00,0x6f,0x3b,0x0a,0x07,0x3b,0x0b,0x69,0x06,0x3b,0x0c,0x5b,0x00,0x6f,0x3b,0x0a,0x07,0x3b,0x0b,0x69,0x16,0x3b,0x0c,0x5b,0x00,0x6f,0x3b,0x0a,0x07,0x3b,0x0b,0x69,0x00,0x3b,0x0c,0x5b,0x00))
  Wait(60)
  205(34,bytes(0x04,0x08,0x6f,0x3a,0x13,0x52,0x50,0x47,0x3a,0x3a,0x4d,0x6f,0x76,0x65,0x52,0x6f,0x75,0x74,0x65,0x09,0x3a,0x0c,0x40,0x72,0x65,0x70,0x65,0x61,0x74,0x46,0x3a,0x0f,0x40,0x73,0x6b,0x69,0x70,0x70,0x61,0x62,0x6c,0x65,0x54,0x3a,0x0a,0x40,0x77,0x61,0x69,0x74,0x46,0x3a,0x0a,0x40,0x6c,0x69,0x73,0x74,0x5b,0x0a,0x6f,0x3a,0x15,0x52,0x50,0x47,0x3a,0x3a,0x4d,0x6f,0x76,0x65,0x43,0x6f,0x6d,0x6d,0x61,0x6e,0x64,0x07,0x3a,0x0a,0x40,0x63,0x6f,0x64,0x65,0x69,0x09,0x3a,0x10,0x40,0x70,0x61,0x72,0x61,0x6d,0x65,0x74,0x65,0x72,0x73,0x5b,0x00,0x6f,0x3b,0x0a,0x07,0x3b,0x0b,0x69,0x09,0x3b,0x0c,0x5b,0x00,0x6f,0x3b,0x0a,0x07,0x3b,0x0b,0x69,0x09,0x3b,0x0c,0x5b,0x00,0x6f,0x3b,0x0a,0x07,0x3b,0x0b,0x69,0x16,0x3b,0x0c,0x5b,0x00,0x6f,0x3b,0x0a,0x07,0x3b,0x0b,0x69,0x00,0x3b,0x0c,0x5b,0x00))
  ShowMessageFace("kunoitielf2_fc2",1,0,2,35)
  ShowMessage("\\n<エルフ側近>姫はご承諾されたようです。")
  ShowMessage("「今夜、さっそく手紙を送る」と仰せです。")
  ShowMessageFace("kunoitielf2_fc2",1,0,2,36)
  ShowMessage("\\n<エルフ側近>そして、結婚式の事ですが……")
  ShowMessage("姫は「神社でも教会でも構わない」との事です。")
  If(0,6,0)
   205(35,bytes(0x04,0x08,0x6f,0x3a,0x13,0x52,0x50,0x47,0x3a,0x3a,0x4d,0x6f,0x76,0x65,0x52,0x6f,0x75,0x74,0x65,0x09,0x3a,0x0c,0x40,0x72,0x65,0x70,0x65,0x61,0x74,0x46,0x3a,0x0f,0x40,0x73,0x6b,0x69,0x70,0x70,0x61,0x62,0x6c,0x65,0x46,0x3a,0x0a,0x40,0x77,0x61,0x69,0x74,0x54,0x3a,0x0a,0x40,0x6c,0x69,0x73,0x74,0x5b,0x12,0x6f,0x3a,0x15,0x52,0x50,0x47,0x3a,0x3a,0x4d,0x6f,0x76,0x65,0x43,0x6f,0x6d,0x6d,0x61,0x6e,0x64,0x07,0x3a,0x0a,0x40,0x63,0x6f,0x64,0x65,0x69,0x22,0x3a,0x10,0x40,0x70,0x61,0x72,0x61,0x6d,0x65,0x74,0x65,0x72,0x73,0x5b,0x06,0x69,0x0b,0x6f,0x3b,0x0a,0x07,0x3b,0x0b,0x69,0x23,0x3b,0x0c,0x5b,0x06,0x69,0x09,0x6f,0x3b,0x0a,0x07,0x3b,0x0b,0x69,0x07,0x3b,0x0c,0x5b,0x00,0x6f,0x3b,0x0a,0x07,0x3b,0x0b,0x69,0x07,0x3b,0x0c,0x5b,0x00,0x6f,0x3b,0x0a,0x07,0x3b,0x0b,0x69,0x09,0x3b,0x0c,0x5b,0x00,0x6f,0x3b,0x0a,0x07,0x3b,0x0b,0x69,0x09,0x3b,0x0c,0x5b,0x00,0x6f,0x3b,0x0a,0x07,0x3b,0x0b,0x69,0x09,0x3b,0x0c,0x5b,0x00,0x6f,0x3b,0x0a,0x07,0x3b,0x0b,0x69,0x08,0x3b,0x0c,0x5b,0x00,0x6f,0x3b,0x0a,0x07,0x3b,0x0b,0x69,0x08,0x3b,0x0c,0x5b,0x00,0x6f,0x3b,0x0a,0x07,0x3b,0x0b,0x69,0x08,0x3b,0x0c,0x5b,0x00,0x6f,0x3b,0x0a,0x07,0x3b,0x0b,0x69,0x08,0x3b,0x0c,0x5b,0x00,0x6f,0x3b,0x0a,0x07,0x3b,0x0b,0x69,0x08,0x3b,0x0c,0x5b,0x00,0x6f,0x3b,0x0a,0x07,0x3b,0x0b,0x69,0x00,0x3b,0x0c,0x5b,0x00))
   205(31,bytes(0x04,0x08,0x6f,0x3a,0x13,0x52,0x50,0x47,0x3a,0x3a,0x4d,0x6f,0x76,0x65,0x52,0x6f,0x75,0x74,0x65,0x09,0x3a,0x0c,0x40,0x72,0x65,0x70,0x65,0x61,0x74,0x46,0x3a,0x0f,0x40,0x73,0x6b,0x69,0x70,0x70,0x61,0x62,0x6c,0x65,0x46,0x3a,0x0a,0x40,0x77,0x61,0x69,0x74,0x54,0x3a,0x0a,0x40,0x6c,0x69,0x73,0x74,0x5b,0x07,0x6f,0x3a,0x15,0x52,0x50,0x47,0x3a,0x3a,0x4d,0x6f,0x76,0x65,0x43,0x6f,0x6d,0x6d,0x61,0x6e,0x64,0x07,0x3a,0x0a,0x40,0x63,0x6f,0x64,0x65,0x69,0x16,0x3a,0x10,0x40,0x70,0x61,0x72,0x61,0x6d,0x65,0x74,0x65,0x72,0x73,0x5b,0x00,0x6f,0x3b,0x0a,0x07,0x3b,0x0b,0x69,0x00,0x3b,0x0c,0x5b,0x00))
   ShowSpeechBalloon(31,1,false)
   ShowMessageFace("sonia_fc2",5,0,2,37)
   ShowMessage("\\n<ソニア>ルカは「距離感の読めない女は迷惑だ」との事ですっ！！")
   Wait(60)
   PictureDisplay(5,"80_elfhime_st03",0,0,0,0,100,100,0,0)
   PictureMove(5,null,0,0,0,0,100,100,255,0,60,true)
   ShowMessageFace("elfhime_fc1",2,0,2,38)
   ShowMessage("\\n<エルフ姫>……………………")
   ShowMessageFace("elfhime_fc1",2,0,2,39)
   ShowMessage("\\n<エルフ姫>なんなの、おにこんぼう娘……野蛮……")
   ShowMessageFace("sonia_fc2",6,0,2,40)
   ShowMessage("\\n<ソニア>キィィィ～～！！")
   0()
  Else()
   ShowMessageFace("ruka_fc1",0,0,2,41)
   ShowMessage("\\n<ルカ>……………………")
   0()
  EndIf()
  PictureClear(5)
  Wait(60)
  221()
  241(bytes(0x04,0x08,0x6f,0x3a,0x0d,0x52,0x50,0x47,0x3a,0x3a,0x42,0x47,0x4d,0x08,0x3a,0x0a,0x40,0x6e,0x61,0x6d,0x65,0x49,0x22,0x0c,0x62,0x61,0x74,0x74,0x6c,0x65,0x32,0x06,0x3a,0x06,0x45,0x54,0x3a,0x0c,0x40,0x76,0x6f,0x6c,0x75,0x6d,0x65,0x69,0x69,0x3a,0x0b,0x40,0x70,0x69,0x74,0x63,0x68,0x69,0x69))
  Wait(120)
  ShowMessageFace("",0,0,2,42)
  ShowMessage("エルフ姫との会談は、円滑に進んだ……")
  216(0)
  ChangeVariable(1081,1081,0,0,4)
  ChangeSwitch(31,31,1)
  Wait(60)
  241(bytes(0x04,0x08,0x6f,0x3a,0x0d,0x52,0x50,0x47,0x3a,0x3a,0x42,0x47,0x4d,0x08,0x3a,0x0a,0x40,0x6e,0x61,0x6d,0x65,0x49,0x22,0x14,0x73,0x63,0x65,0x6e,0x65,0x5f,0x65,0x70,0x69,0x6c,0x6f,0x67,0x75,0x65,0x32,0x06,0x3a,0x06,0x45,0x54,0x3a,0x0c,0x40,0x76,0x6f,0x6c,0x75,0x6d,0x65,0x69,0x69,0x3a,0x0b,0x40,0x70,0x69,0x74,0x63,0x68,0x69,0x69))
  222()
  355("gain_medal(58)")
  If(0,4,0)
   ShowMessageFace("alice_fc5",0,0,2,43)
   ShowMessage("\\n<アリス>まあ、とにかく……")
   ShowMessage("色々あったが、レッドオーブは無事に手に入ったな。")
   0()
  EndIf()
  If(0,5,0)
   ShowMessageFace("iriasu_fc4",0,0,2,44)
   ShowMessage("\\n<イリアス>まあ、とにかく……")
   ShowMessage("色々ありましたが、レッドオーブは無事に手に入りましたね。")
   0()
  EndIf()
  If(0,6,0)
   ShowMessageFace("ruka_fc1",0,0,2,45)
   ShowMessage("\\n<ルカ>ソニア、大丈夫……？")
   ShowMessageFace("sonia_fc3",3,0,2,46)
   ShowMessage("\\n<ソニア>最高位のエルフ相手に、あそこまで戦り合った自分がすごい……")
   If(0,4,0)
    ShowMessageFace("alice_fc5",0,0,2,47)
    ShowMessage("\\n<アリス>貴様はよくやった。")
    ShowMessage("向こうも予想以上の大ダメージを受けていたぞ……")
    0()
   EndIf()
   If(0,5,0)
    ShowMessageFace("iriasu_fc4",2,0,2,48)
    ShowMessage("\\n<イリアス>素晴らしい奮闘ぶりでした。")
    ShowMessage("向こうも予想以上の大ダメージを受けていましたね……")
    0()
   EndIf()
   0()
  Else()
   ShowMessageFace("ruka_fc1",0,0,2,49)
   ShowMessage("\\n<ルカ>色々、大変そうだけどね……")
   0()
  EndIf()
  If(0,4,0)
   ShowMessageFace("alice_fc5",1,0,2,50)
   ShowMessage("\\n<アリス>エルフ姫の好意で、里の商人と鍛冶屋が神社に出向している。")
   ShowMessage("良い品を扱っているようで、ずいぶん助かるな。")
   0()
  EndIf()
  If(0,5,0)
   ShowMessageFace("iriasu_fc4",0,0,2,51)
   ShowMessage("\\n<イリアス>姫の好意で、里の商人と鍛冶屋が神社に出向しています。")
   ShowMessage("良い品を扱っているようで、ずいぶん助かりますね。")
   0()
  EndIf()
  If(0,6,0)
   ShowMessageFace("sonia_fc3",3,0,2,52)
   ShowMessage("\\n<ソニア>あー、助かるわぁ……")
   ShowMessageFace("ruka_fc1",0,0,2,53)
   ShowMessage("\\n<ルカ>……………………")
   0()
  EndIf()
  RunCommonEvent(330)
  241(bytes(0x04,0x08,0x6f,0x3a,0x0d,0x52,0x50,0x47,0x3a,0x3a,0x42,0x47,0x4d,0x08,0x3a,0x0a,0x40,0x6e,0x61,0x6d,0x65,0x49,0x22,0x0a,0x6d,0x75,0x72,0x61,0x37,0x06,0x3a,0x06,0x45,0x54,0x3a,0x0c,0x40,0x76,0x6f,0x6c,0x75,0x6d,0x65,0x69,0x69,0x3a,0x0b,0x40,0x70,0x69,0x74,0x63,0x68,0x69,0x69))
  EndEventProcessing()
  0()
 PAGE   2
  // condition: variable 1081 >= 4
  0()

EVENT   3
 PAGE   1
  281(1)
  250(bytes(0x04,0x08,0x6f,0x3a,0x0c,0x52,0x50,0x47,0x3a,0x3a,0x53,0x45,0x08,0x3a,0x0a,0x40,0x6e,0x61,0x6d,0x65,0x49,0x22,0x09,0x4d,0x6f,0x76,0x65,0x06,0x3a,0x06,0x45,0x54,0x3a,0x0b,0x40,0x70,0x69,0x74,0x63,0x68,0x69,0x69,0x3a,0x0c,0x40,0x76,0x6f,0x6c,0x75,0x6d,0x65,0x69,0x55))
  TeleportPlayer(0,512,42,36,0,0)
  0()



EVENT   4
 PAGE   1
  250(bytes(0x04,0x08,0x6f,0x3a,0x0c,0x52,0x50,0x47,0x3a,0x3a,0x53,0x45,0x08,0x3a,0x0a,0x40,0x6e,0x61,0x6d,0x65,0x49,0x22,0x09,0x4d,0x6f,0x76,0x65,0x06,0x3a,0x06,0x45,0x54,0x3a,0x0b,0x40,0x70,0x69,0x74,0x63,0x68,0x69,0x69,0x3a,0x0c,0x40,0x76,0x6f,0x6c,0x75,0x6d,0x65,0x69,0x55))
  TeleportPlayer(0,513,32,30,0,0)
  0()



EVENT   5
 PAGE   1
  250(bytes(0x04,0x08,0x6f,0x3a,0x0c,0x52,0x50,0x47,0x3a,0x3a,0x53,0x45,0x08,0x3a,0x0a,0x40,0x6e,0x61,0x6d,0x65,0x49,0x22,0x09,0x4d,0x6f,0x76,0x65,0x06,0x3a,0x06,0x45,0x54,0x3a,0x0b,0x40,0x70,0x69,0x74,0x63,0x68,0x69,0x69,0x3a,0x0c,0x40,0x76,0x6f,0x6c,0x75,0x6d,0x65,0x69,0x55))
  TeleportPlayer(0,513,33,30,0,0)
  0()



EVENT   6
 PAGE   1
  If(1,1060,0,0,0)
   If(0,6,0)
    ShowMessageFace("sonia_fc3",7,0,2,1)
    ShowMessage("\\n<ソニア>見た限り、みんな息がある……")
    ShowMessage("それどころか、大きな怪我もないみたい……")
    0()
   Else()
    ShowMessageFace("ruka_fc1",0,0,2,2)
    ShowMessage("\\n<ルカ>見た限り、みんな息がある……")
    ShowMessage("それどころか、大きな怪我もないみたいだ……")
    0()
   EndIf()
   If(0,4,0)
    ShowMessageFace("alice_fc6",0,0,2,3)
    ShowMessage("\\n<アリス>襲撃者は、殺さないよう手加減していたというのか……")
    ShowMessage("にもかかわらず、ここまでの強さとは……")
    0()
   EndIf()
   If(0,5,0)
    ShowMessageFace("iriasu_fc4",7,0,2,4)
    ShowMessage("\\n<イリアス>襲撃者は、無駄な殺傷を好まなかったようですね。")
    ShowMessage("それでいながらこの強さとは、地上の者とは思えません……")
    0()
   EndIf()
   0()
  EndIf()
  250(bytes(0x04,0x08,0x6f,0x3a,0x0c,0x52,0x50,0x47,0x3a,0x3a,0x53,0x45,0x08,0x3a,0x0a,0x40,0x6e,0x61,0x6d,0x65,0x49,0x22,0x09,0x4d,0x6f,0x76,0x65,0x06,0x3a,0x06,0x45,0x54,0x3a,0x0b,0x40,0x70,0x69,0x74,0x63,0x68,0x69,0x69,0x3a,0x0c,0x40,0x76,0x6f,0x6c,0x75,0x6d,0x65,0x69,0x55))
  TeleportPlayer(0,513,30,8,0,0)
  If(1,1060,0,0,0)
   241(bytes(0x04,0x08,0x6f,0x3a,0x0d,0x52,0x50,0x47,0x3a,0x3a,0x42,0x47,0x4d,0x08,0x3a,0x0a,0x40,0x6e,0x61,0x6d,0x65,0x49,0x22,0x0a,0x6b,0x69,0x6b,0x69,0x32,0x06,0x3a,0x06,0x45,0x54,0x3a,0x0c,0x40,0x76,0x6f,0x6c,0x75,0x6d,0x65,0x69,0x69,0x3a,0x0b,0x40,0x70,0x69,0x74,0x63,0x68,0x69,0x69))
   0()
  EndIf()
  0()



EVENT   7
 PAGE   1
  250(bytes(0x04,0x08,0x6f,0x3a,0x0c,0x52,0x50,0x47,0x3a,0x3a,0x53,0x45,0x08,0x3a,0x0a,0x40,0x6e,0x61,0x6d,0x65,0x49,0x22,0x09,0x4d,0x6f,0x76,0x65,0x06,0x3a,0x06,0x45,0x54,0x3a,0x0b,0x40,0x70,0x69,0x74,0x63,0x68,0x69,0x69,0x3a,0x0c,0x40,0x76,0x6f,0x6c,0x75,0x6d,0x65,0x69,0x55))
  TeleportPlayer(0,513,31,8,0,0)
  0()



EVENT   8
 PAGE   1
  281(1)
  250(bytes(0x04,0x08,0x6f,0x3a,0x0c,0x52,0x50,0x47,0x3a,0x3a,0x53,0x45,0x08,0x3a,0x0a,0x40,0x6e,0x61,0x6d,0x65,0x49,0x22,0x09,0x4d,0x6f,0x76,0x65,0x06,0x3a,0x06,0x45,0x54,0x3a,0x0b,0x40,0x70,0x69,0x74,0x63,0x68,0x69,0x69,0x3a,0x0c,0x40,0x76,0x6f,0x6c,0x75,0x6d,0x65,0x69,0x55))
  TeleportPlayer(0,512,27,15,0,0)
  0()



EVENT   9
 PAGE   1
  281(1)
  250(bytes(0x04,0x08,0x6f,0x3a,0x0c,0x52,0x50,0x47,0x3a,0x3a,0x53,0x45,0x08,0x3a,0x0a,0x40,0x6e,0x61,0x6d,0x65,0x49,0x22,0x09,0x4d,0x6f,0x76,0x65,0x06,0x3a,0x06,0x45,0x54,0x3a,0x0b,0x40,0x70,0x69,0x74,0x63,0x68,0x69,0x69,0x3a,0x0c,0x40,0x76,0x6f,0x6c,0x75,0x6d,0x65,0x69,0x55))
  TeleportPlayer(0,512,28,15,0,0)
  0()



EVENT   10
 PAGE   1
  ShowMessageFace("mikolamia_fc1",2,0,2,1)
  ShowMessage("\\n<巫女ラミア>ううっ……なんという強さ……")
  0()
 PAGE   2
  // condition: variable 1060 >= 2
  0()



EVENT   11
 PAGE   1
  0()
 PAGE   2
  // condition: variable 1060 >= 2
  0()



EVENT   12
 PAGE   1
  ShowMessageFace("yukionna_fc1",2,0,2,1)
  ShowMessage("\\n<雪女>命を落とした者は、いないみたい……")
  ShowMessage("手加減されて、あの強さ……")
  0()
 PAGE   2
  // condition: variable 1060 >= 2
  0()



EVENT   13
 PAGE   1
  ShowMessageFace("mikolamia_fc1",2,0,2,1)
  ShowMessage("\\n<巫女ラミア>私達を一蹴するなんて……")
  0()
 PAGE   2
  // condition: variable 1060 >= 2
  0()



EVENT   14
 PAGE   1
  ShowMessageFace("kirin_fc1",2,0,2,1)
  ShowMessage("\\n<麒麟>信じられん……なんという強者じゃ……")
  0()
 PAGE   2
  // condition: variable 1060 >= 2
  0()



EVENT   15
 PAGE   1
  ShowMessageFace("kezyorou_fc1",2,0,2,1)
  ShowMessage("\\n<毛倡妓>なんなんだい、いったい……")
  ShowMessage("影さえ見えなかったよ……")
  0()
 PAGE   2
  // condition: variable 1060 >= 2
  0()



EVENT   16
 PAGE   1
  ShowMessageFace("husuma_fc1",2,0,2,1)
  ShowMessage("\\n<襖>むぎゅう……")
  0()
 PAGE   2
  // condition: variable 1060 >= 2
  0()



EVENT   17
 PAGE   1
  ShowMessageFace("enenra_fc1",2,0,2,1)
  ShowMessage("\\n<煙々羅>ぐっ、無念……")
  ShowMessage("とは言え、傷は深くはないか。")
  0()
 PAGE   2
  // condition: variable 1060 >= 2
  0()



EVENT   18
 PAGE   1
  ShowMessageFace("zyakotuonna_fc1",2,0,2,1)
  ShowMessage("\\n<蛇骨女>小娘の癖に、なんていう強さだい……")
  0()
 PAGE   2
  // condition: variable 1060 >= 2
  0()



EVENT   19
 PAGE   1
  ShowMessageFace("kezyorou_fc1",2,0,2,1)
  ShowMessage("\\n<毛倡妓>悪巧みなんて、やめときゃよかったよ……")
  0()
 PAGE   2
  // condition: variable 1060 >= 2
  0()



EVENT   20
 PAGE   1
  0()
 PAGE   2
  // condition: variable 1060 >= 1
  0()



EVENT   21
 PAGE   1
  205(-1,bytes(0x04,0x08,0x6f,0x3a,0x13,0x52,0x50,0x47,0x3a,0x3a,0x4d,0x6f,0x76,0x65,0x52,0x6f,0x75,0x74,0x65,0x09,0x3a,0x0c,0x40,0x72,0x65,0x70,0x65,0x61,0x74,0x46,0x3a,0x0f,0x40,0x73,0x6b,0x69,0x70,0x70,0x61,0x62,0x6c,0x65,0x46,0x3a,0x0a,0x40,0x77,0x61,0x69,0x74,0x54,0x3a,0x0a,0x40,0x6c,0x69,0x73,0x74,0x5b,0x07,0x6f,0x3a,0x15,0x52,0x50,0x47,0x3a,0x3a,0x4d,0x6f,0x76,0x65,0x43,0x6f,0x6d,0x6d,0x61,0x6e,0x64,0x07,0x3a,0x0a,0x40,0x63,0x6f,0x64,0x65,0x69,0x15,0x3a,0x10,0x40,0x70,0x61,0x72,0x61,0x6d,0x65,0x74,0x65,0x72,0x73,0x5b,0x00,0x6f,0x3b,0x0a,0x07,0x3b,0x0b,0x69,0x00,0x3b,0x0c,0x5b,0x00))
  ShowMessageFace("ruka_fc1",0,0,2,1)
  ShowMessage("\\n<ルカ>あれは……！")
  241(bytes(0x04,0x08,0x6f,0x3a,0x0d,0x52,0x50,0x47,0x3a,0x3a,0x42,0x47,0x4d,0x08,0x3a,0x0a,0x40,0x6e,0x61,0x6d,0x65,0x49,0x22,0x0a,0x62,0x6f,0x73,0x73,0x30,0x06,0x3a,0x06,0x45,0x54,0x3a,0x0c,0x40,0x76,0x6f,0x6c,0x75,0x6d,0x65,0x69,0x69,0x3a,0x0b,0x40,0x70,0x69,0x74,0x63,0x68,0x69,0x69))
  PictureDisplay(5,"80_sirohebisama_st03",0,0,0,0,100,100,0,0)
  PictureMove(5,null,0,0,0,0,100,100,255,0,30,true)
  ShowMessageFace("sirohebisama_fc1",2,0,2,2)
  ShowMessage("\\n<白蛇様>ぐっ、我が軍団が壊滅とは……")
  ShowMessage("お主は、いったい……")
  PictureDisplay(5,"80_neris_st01b",0,0,-150,0,100,100,255,0)
  PictureDisplay(6,"80_sirohebisama_st03",0,0,150,0,100,100,255,0)
  ShowMessageFace("neris_fc1",0,0,2,3)
  ShowMessage("\\n<ネリス>聞いた事があるでしょ？")
  ShowMessage("あたしは、アリスフィーズ17世――")
  PictureClear(5)
  PictureClear(6)
  Wait(60)
  205(20,bytes(0x04,0x08,0x6f,0x3a,0x13,0x52,0x50,0x47,0x3a,0x3a,0x4d,0x6f,0x76,0x65,0x52,0x6f,0x75,0x74,0x65,0x09,0x3a,0x0c,0x40,0x72,0x65,0x70,0x65,0x61,0x74,0x46,0x3a,0x0f,0x40,0x73,0x6b,0x69,0x70,0x70,0x61,0x62,0x6c,0x65,0x46,0x3a,0x0a,0x40,0x77,0x61,0x69,0x74,0x54,0x3a,0x0a,0x40,0x6c,0x69,0x73,0x74,0x5b,0x07,0x6f,0x3a,0x15,0x52,0x50,0x47,0x3a,0x3a,0x4d,0x6f,0x76,0x65,0x43,0x6f,0x6d,0x6d,0x61,0x6e,0x64,0x07,0x3a,0x0a,0x40,0x63,0x6f,0x64,0x65,0x69,0x18,0x3a,0x10,0x40,0x70,0x61,0x72,0x61,0x6d,0x65,0x74,0x65,0x72,0x73,0x5b,0x00,0x6f,0x3b,0x0a,0x07,0x3b,0x0b,0x69,0x00,0x3b,0x0c,0x5b,0x00))
  ShowSpeechBalloon(20,1,true)
  PictureDisplay(5,"80_neris_st02b",0,0,0,0,100,100,0,0)
  PictureMove(5,null,0,0,0,0,100,100,255,0,30,true)
  ShowMessageFace("neris_fc1",1,0,2,4)
  ShowMessage("\\n<ネリス>あっ、ルカ～～♪")
  If(0,4,0)
   ShowMessageFace("alice_fc6",0,0,2,5)
   ShowMessage("\\n<アリス>貴様は確か、アリスフィーズ17世！")
   ShowMessage("この襲撃は、貴様の仕業なのか……！？")
   0()
  EndIf()
  If(0,5,0)
   ShowMessageFace("iriasu_fc4",7,0,2,6)
   ShowMessage("\\n<イリアス>あなたは……アリスフィーズ17世！")
   ShowMessage("この襲撃は、あなたの仕業ですか！")
   0()
  EndIf()
  ShowMessageFace("",0,0,2,7)
  ShowMessage("そう言えば、ここまでの旅路で耳にした事がある。")
  ShowMessage("アリスフィーズ17世が、各地の有名な妖魔を襲撃しているとか――")
  PictureDisplay(5,"80_neris_st03b",0,0,0,0,100,100,255,0)
  ShowMessageFace("neris_fc1",2,0,2,8)
  ShowMessage("\\n<ネリス>でも、困ったなぁ……")
  ShowMessage("今、ルカに会うつもりじゃなかったんだよね。")
  If(0,4,0)
   ShowMessageFace("alice_fc5",2,0,2,9)
   ShowMessage("\\n<アリス>各種族の女王や、名のある妖魔を無差別に攻撃しているようだな。")
   ShowMessage("貴様は、いったい何を企んでいるのだ……？")
   PictureDisplay(5,"80_neris_st01b",0,0,0,0,100,100,255,0)
   ShowMessageFace("neris_fc1",0,0,2,10)
   ShowMessage("\\n<ネリス>無差別じゃないよ、失礼な……")
   ShowMessage("正史じゃ黒のアリスに荷担する連中を、あらかじめ潰してるの。")
   ShowMessageFace("alice_fc6",0,0,2,11)
   ShowMessage("\\n<アリス>正史で、多くの妖魔が黒のアリスに荷担……？")
   ShowMessage("いったい、どういう事だ……？")
   0()
  EndIf()
  If(0,5,0)
   ShowMessageFace("iriasu_fc4",7,0,2,12)
   ShowMessage("\\n<イリアス>各地の強力な妖魔を、無差別襲撃しているようですね。")
   ShowMessage("それ自体は善行ですが、意図が不明確なのが気に入りません。")
   PictureDisplay(5,"80_neris_st01b",0,0,0,0,100,100,255,0)
   ShowMessageFace("neris_fc1",0,0,2,13)
   ShowMessage("\\n<ネリス>無差別じゃないよ、失礼な……")
   ShowMessage("正史じゃ黒のアリスに荷担する連中を、あらかじめ潰してるの。")
   ShowMessageFace("neris_fc1",0,0,2,14)
   ShowMessage("\\n<ネリス>そもそも、再創世計画であんたが糸を引いていた事じゃない！")
   ShowMessage("やらかす前に、後始末してあげてるのよ！")
   ShowMessageFace("iriasu_fc4",5,0,2,15)
   ShowMessage("\\n<イリアス>まさか、再創世計画を知っている……？")
   ShowMessage("黒のアリスを通じて、魔物と人間を戦わせる事も……")
   0()
  EndIf()
  241(bytes(0x04,0x08,0x6f,0x3a,0x0d,0x52,0x50,0x47,0x3a,0x3a,0x42,0x47,0x4d,0x08,0x3a,0x0a,0x40,0x6e,0x61,0x6d,0x65,0x49,0x22,0x10,0x73,0x63,0x65,0x6e,0x65,0x5f,0x63,0x6f,0x6d,0x69,0x32,0x06,0x3a,0x06,0x45,0x54,0x3a,0x0c,0x40,0x76,0x6f,0x6c,0x75,0x6d,0x65,0x69,0x69,0x3a,0x0b,0x40,0x70,0x69,0x74,0x63,0x68,0x69,0x69))
  ShowMessageFace("neris_fc1",0,0,2,16)
  ShowMessage("\\n<ネリス>説明、めんどうくさい！")
  PictureClear(5)
  Wait(60)
  250(bytes(0x04,0x08,0x6f,0x3a,0x0c,0x52,0x50,0x47,0x3a,0x3a,0x53,0x45,0x08,0x3a,0x0a,0x40,0x6e,0x61,0x6d,0x65,0x49,0x22,0x0f,0x6d,0x6f,0x6e,0x5f,0x65,0x73,0x63,0x61,0x70,0x65,0x06,0x3a,0x06,0x45,0x54,0x3a,0x0b,0x40,0x70,0x69,0x74,0x63,0x68,0x69,0x69,0x3a,0x0c,0x40,0x76,0x6f,0x6c,0x75,0x6d,0x65,0x69,0x55))
  205(20,bytes(0x04,0x08,0x6f,0x3a,0x13,0x52,0x50,0x47,0x3a,0x3a,0x4d,0x6f,0x76,0x65,0x52,0x6f,0x75,0x74,0x65,0x09,0x3a,0x0c,0x40,0x72,0x65,0x70,0x65,0x61,0x74,0x46,0x3a,0x0f,0x40,0x73,0x6b,0x69,0x70,0x70,0x61,0x62,0x6c,0x65,0x46,0x3a,0x0a,0x40,0x77,0x61,0x69,0x74,0x46,0x3a,0x0a,0x40,0x6c,0x69,0x73,0x74,0x5b,0x18,0x6f,0x3a,0x15,0x52,0x50,0x47,0x3a,0x3a,0x4d,0x6f,0x76,0x65,0x43,0x6f,0x6d,0x6d,0x61,0x6e,0x64,0x07,0x3a,0x0a,0x40,0x63,0x6f,0x64,0x65,0x69,0x22,0x3a,0x10,0x40,0x70,0x61,0x72,0x61,0x6d,0x65,0x74,0x65,0x72,0x73,0x5b,0x06,0x69,0x0b,0x6f,0x3b,0x0a,0x07,0x3b,0x0b,0x69,0x23,0x3b,0x0c,0x5b,0x06,0x69,0x09,0x6f,0x3b,0x0a,0x07,0x3b,0x0b,0x69,0x08,0x3b,0x0c,0x5b,0x00,0x6f,0x3b,0x0a,0x07,0x3b,0x0b,0x69,0x08,0x3b,0x0c,0x5b,0x00,0x6f,0x3b,0x0a,0x07,0x3b,0x0b,0x69,0x08,0x3b,0x0c,0x5b,0x00,0x6f,0x3b,0x0a,0x07,0x3b,0x0b,0x69,0x08,0x3b,0x0c,0x5b,0x00,0x6f,0x3b,0x0a,0x07,0x3b,0x0b,0x69,0x08,0x3b,0x0c,0x5b,0x00,0x6f,0x3b,0x0a,0x07,0x3b,0x0b,0x69,0x08,0x3b,0x0c,0x5b,0x00,0x6f,0x3b,0x0a,0x07,0x3b,0x0b,0x69,0x08,0x3b,0x0c,0x5b,0x00,0x6f,0x3b,0x0a,0x07,0x3b,0x0b,0x69,0x08,0x3b,0x0c,0x5b,0x00,0x6f,0x3b,0x0a,0x07,0x3b,0x0b,0x69,0x08,0x3b,0x0c,0x5b,0x00,0x6f,0x3b,0x0a,0x07,0x3b,0x0b,0x69,0x08,0x3b,0x0c,0x5b,0x00,0x6f,0x3b,0x0a,0x07,0x3b,0x0b,0x69,0x08,0x3b,0x0c,0x5b,0x00,0x6f,0x3b,0x0a,0x07,0x3b,0x0b,0x69,0x08,0x3b,0x0c,0x5b,0x00,0x6f,0x3b,0x0a,0x07,0x3b,0x0b,0x69,0x08,0x3b,0x0c,0x5b,0x00,0x6f,0x3b,0x0a,0x07,0x3b,0x0b,0x69,0x08,0x3b,0x0c,0x5b,0x00,0x6f,0x3b,0x0a,0x07,0x3b,0x0b,0x69,0x08,0x3b,0x0c,0x5b,0x00,0x6f,0x3b,0x0a,0x07,0x3b,0x0b,0x69,0x08,0x3b,0x0c,0x5b,0x00,0x6f,0x3b,0x0a,0x07,0x3b,0x0b,0x69,0x00,0x3b,0x0c,0x5b,0x00))
  ShowMessageFace("neris_fc1",2,0,2,17)
  ShowMessage("\\n<ネリス>逃げる！")
  If(0,4,0)
   ShowMessageFace("alice_fc5",6,0,2,18)
   ShowMessage("\\n<アリス>あっ……！")
   0()
  EndIf()
  If(0,5,0)
   ShowMessageFace("iriasu_fc4",5,0,2,19)
   ShowMessage("\\n<イリアス>あっ……！")
   0()
  EndIf()
  ShowMessageFace("ruka_fc1",0,0,2,20)
  ShowMessage("\\n<ルカ>あっ……！")
  PictureDisplay(5,"80_sirohebisama_st01",0,0,0,0,100,100,0,0)
  PictureMove(5,null,0,0,0,0,100,100,255,0,30,true)
  ShowMessageFace("sirohebisama_fc1",0,0,2,21)
  ShowMessage("\\n<白蛇様>……………………")
  ShowMessageFace("sirohebisama_fc1",0,0,2,22)
  ShowMessage("\\n<白蛇様>ええい、どうなってる！？")
  If(0,4,0)
   ShowMessageFace("alice_fc6",1,0,2,23)
   ShowMessage("\\n<アリス>余が知るか！")
   0()
  EndIf()
  If(0,5,0)
   ShowMessageFace("iriasu_fc5",0,0,2,24)
   ShowMessage("\\n<イリアス>知りません！")
   0()
  EndIf()
  If(4,226,0)
   ShowMessageFace("sirohebisama_fc1",0,0,2,25)
   ShowMessage("\\n<白蛇様’>なんぞ、大変じゃのう……")
   ShowMessageFace("sirohebisama_fc1",2,0,2,26)
   ShowMessage("\\n<白蛇様>おまけに妾がもう一匹！")
   ShowMessage("なんじゃこれは、悪夢か！？")
   0()
  EndIf()
  ShowMessageFace("sirohebisama_fc1",0,0,2,27)
  ShowMessage("\\n<白蛇様>なんだか分からんが、行くぞ！")
  ShowMessageFace("ruka_fc1",0,0,2,28)
  ShowMessage("\\n<ルカ>さあ来い！")
  PictureClear(5)
  SetBattleBGM(bytes(0x04,0x08,0x6f,0x3a,0x0d,0x52,0x50,0x47,0x3a,0x3a,0x42,0x47,0x4d,0x08,0x3a,0x0a,0x40,0x6e,0x61,0x6d,0x65,0x49,0x22,0x0a,0x62,0x6f,0x73,0x73,0x31,0x06,0x3a,0x06,0x45,0x54,0x3a,0x0c,0x40,0x76,0x6f,0x6c,0x75,0x6d,0x65,0x69,0x69,0x3a,0x0b,0x40,0x70,0x69,0x74,0x63,0x68,0x69,0x69))
  ChangeSwitch(22,22,0)
  Battle(0,641,false,false)
  ChangeSwitch(22,22,1)
  SetBattleBGM(bytes(0x04,0x08,0x6f,0x3a,0x0d,0x52,0x50,0x47,0x3a,0x3a,0x42,0x47,0x4d,0x08,0x3a,0x0a,0x40,0x6e,0x61,0x6d,0x65,0x49,0x22,0x0b,0x62,0x61,0x74,0x74,0x6c,0x65,0x06,0x3a,0x06,0x45,0x54,0x3a,0x0c,0x40,0x76,0x6f,0x6c,0x75,0x6d,0x65,0x69,0x69,0x3a,0x0b,0x40,0x70,0x69,0x74,0x63,0x68,0x69,0x69))
  ChangeSwitch(2272,2272,1)
  241(bytes(0x04,0x08,0x6f,0x3a,0x0d,0x52,0x50,0x47,0x3a,0x3a,0x42,0x47,0x4d,0x08,0x3a,0x0a,0x40,0x6e,0x61,0x6d,0x65,0x49,0x22,0x14,0x73,0x63,0x65,0x6e,0x65,0x5f,0x65,0x70,0x69,0x6c,0x6f,0x67,0x75,0x65,0x32,0x06,0x3a,0x06,0x45,0x54,0x3a,0x0c,0x40,0x76,0x6f,0x6c,0x75,0x6d,0x65,0x69,0x69,0x3a,0x0b,0x40,0x70,0x69,0x74,0x63,0x68,0x69,0x69))
  PictureDisplay(5,"80_sirohebisama_st03",0,0,0,0,100,100,0,0)
  PictureMove(5,null,0,0,0,0,100,100,255,0,30,true)
  ShowMessageFace("sirohebisama_fc1",2,0,2,29)
  ShowMessage("\\n<白蛇様>こんな、訳も分からぬまま……")
  ShowMessage("もう散々じゃ……")
  PictureClear(5)
  If(0,4,0)
   ShowMessageFace("alice_fc5",2,0,2,30)
   ShowMessage("\\n<アリス>とりあえず、観念したようだな。")
   ShowMessage("これで当分は大人しくなるだろう。")
   ShowMessageFace("alice_fc5",3,0,2,31)
   ShowMessage("\\n<アリス>しかし、アリスフィーズ17世はいったい……")
   ShowMessage("世を乱しているのか、それとも混乱を収めているのか……")
   0()
  EndIf()
  If(0,5,0)
   ShowMessageFace("iriasu_fc4",0,0,2,32)
   ShowMessage("\\n<イリアス>とりあえず、敵の親玉を討伐しました。")
   ShowMessage("これで当分、良からぬ気は起こさないでしょう。")
   ShowMessageFace("iriasu_fc4",2,0,2,33)
   ShowMessage("\\n<イリアス>しかし、アリスフィーズ17世はいったい……")
   ShowMessage("再創世計画の事まで、知っているとなると……")
   0()
  EndIf()
  ShowMessageFace("ruka_fc1",0,0,2,34)
  ShowMessage("\\n<ルカ>ネリスは、黒のアリスに荷担する妖魔を事前に倒してるって……")
  ShowMessage("そう言ってたよね？")
  If(0,6,0)
   ShowMessageFace("sonia_fc3",0,0,2,35)
   ShowMessage("\\n<ソニア>ねぇ、ルカ……")
   ShowMessage("なんでアリスフィーズ17世の事、ネリスって呼んでるの？")
   ShowMessageFace("ruka_fc1",0,0,2,36)
   ShowMessage("\\n<ルカ>えっ、だって……")
   ShowMessage("前に会った時、ネリスって呼べって言われて……")
   ShowMessageFace("sonia_fc3",0,0,2,37)
   ShowMessage("\\n<ソニア>……………………")
   ShowMessageFace("ruka_fc1",0,0,2,38)
   ShowMessage("\\n<ルカ>……なに怒ってるの？")
   0()
  EndIf()
  ShowMessageFace("durahan_fc1",0,0,2,39)
  ShowMessage("\\n<アーサー>まあ、お前達の都合は少し置いておく。")
  ShowMessage("とりあえずこれで、蛇神社での騒動は解決だ。")
  314(0,0)
  ChangeVariable(1060,1060,0,0,1)
  If(1,1057,0,3,1)
   If(1,1058,0,1,1)
    If(1,1060,0,1,1)
     If(1,1059,0,3,1)
      ChangeVariable(1055,1055,0,0,3)
      ShowMessageFace("ruka_fc1",0,0,2,40)
      ShowMessage("\\n<ルカ>これで、四大神社の困り事を全部解決したね。")
      ShowMessage("村長のところに報告に行こう！")
      TeleportPlayer(0,512,27,15,2,0)
      ChangeVariable(1060,1060,0,0,2)
      EndEventProcessing()
      0()
     EndIf()
     0()
    EndIf()
    0()
   EndIf()
   0()
  EndIf()
  ShowMessageFace("ruka_fc1",0,0,2,41)
  ShowMessage("\\n<ルカ>All right, on to the next shrine!！")
  TeleportPlayer(0,512,27,15,2,0)
  ChangeVariable(1060,1060,0,0,2)
  EndEventProcessing()
  0()
 PAGE   2
  // condition: variable 1060 >= 1
  0()



EVENT   22
 PAGE   1
  // condition: variable 1060 >= 2
  ShowMessageFace("sirohebisama_fc1",0,0,2,1)
  ShowMessage("\\n<白蛇様>ふん、身構えんでも良い……")
  ShowMessage("例の一件で、流石に懲りたわ。")
  ShowMessageFace("sirohebisama_fc1",0,0,2,2)
  ShowMessage("\\n<白蛇様>とは言え、この小さな村では力を持て余して困る。")
  ShowMessage("お主が望むなら、仲間に加わってやっても良いぞ？")
  ShowMessageFace("sirohebisama_fc1",0,0,2,3)
  ShowMessage("\\n<白蛇様>まあ、タダでは気が進まんな……")
  ShowMessage("「開運の招き猫」と交換で、仲間になってやろう。")
  If(8,544)
   ShowMessageFace("sirohebisama_fc1",0,0,2,4)
   ShowMessage("\\n<白蛇様>……むっ、「開運の招き猫」を持ってきたようだな。")
   ShowMessage("それでは、仲間になってやろうぞ。")
   PictureClear(5)
   205(0,bytes(0x04,0x08,0x6f,0x3a,0x13,0x52,0x50,0x47,0x3a,0x3a,0x4d,0x6f,0x76,0x65,0x52,0x6f,0x75,0x74,0x65,0x09,0x3a,0x0c,0x40,0x72,0x65,0x70,0x65,0x61,0x74,0x46,0x3a,0x0f,0x40,0x73,0x6b,0x69,0x70,0x70,0x61,0x62,0x6c,0x65,0x46,0x3a,0x0a,0x40,0x77,0x61,0x69,0x74,0x54,0x3a,0x0a,0x40,0x6c,0x69,0x73,0x74,0x5b,0x09,0x6f,0x3a,0x15,0x52,0x50,0x47,0x3a,0x3a,0x4d,0x6f,0x76,0x65,0x43,0x6f,0x6d,0x6d,0x61,0x6e,0x64,0x07,0x3a,0x0a,0x40,0x63,0x6f,0x64,0x65,0x69,0x2a,0x3a,0x10,0x40,0x70,0x61,0x72,0x61,0x6d,0x65,0x74,0x65,0x72,0x73,0x5b,0x00,0x6f,0x3b,0x0a,0x07,0x3b,0x0b,0x69,0x0f,0x3b,0x0c,0x5b,0x00,0x6f,0x3b,0x0a,0x07,0x3b,0x0b,0x69,0x2c,0x3b,0x0c,0x5b,0x00,0x6f,0x3b,0x0a,0x07,0x3b,0x0b,0x69,0x00,0x3b,0x0c,0x5b,0x00))
   355("add_actor_ex(226)")
   249(bytes(0x04,0x08,0x6f,0x3a,0x0c,0x52,0x50,0x47,0x3a,0x3a,0x4d,0x45,0x08,0x3a,0x0a,0x40,0x6e,0x61,0x6d,0x65,0x49,0x22,0x0c,0x66,0x61,0x6e,0x66,0x61,0x6c,0x65,0x06,0x3a,0x06,0x45,0x54,0x3a,0x0b,0x40,0x70,0x69,0x74,0x63,0x68,0x69,0x69,0x3a,0x0c,0x40,0x76,0x6f,0x6c,0x75,0x6d,0x65,0x69,0x69))
   ShowMessageFace("",0,0,2,5)
   ShowMessage("白蛇様が仲間に加わった！")
   Wait(60)
   ChangeSelfSwitch("A",0)
   ShowMessageFace("sirohebisama_fc1",0,0,2,6)
   ShowMessage("\\n<白蛇様>しかし……「開運の招き猫」、よく見れば不細工な顔じゃな。")
   ShowMessage("別に欲しくもなくなったわ、お主が持っておれ。")
   0()
  Else()
   ShowMessageFace("ruka_fc1",0,0,2,7)
   ShowMessage("\\n<ルカ>「開運の招き猫」か……どこにあるんだろう？")
   ShowMessageFace("sirohebisama_fc1",0,0,2,8)
   ShowMessage("\\n<白蛇様>オロチの洞に祀られていると聞く。")
   ShowMessage("また、かの場所には隠し宝物庫の噂もあるようじゃ。")
   0()
  EndIf()
  EndEventProcessing()
  0()
 PAGE   2
  // condition: self-switch A is ON
  0()



EVENT   23
 PAGE   1
  // condition: variable 1060 >= 2
  ShowMessageFace("sirohebisama_fc1",3,0,2,1)
  ShowMessage("\\n<白蛇様>お主達は、姉上を倒した者達か……")
  ShowMessage("あらためて、礼を言わねばならんな。")
  ShowMessageFace("sirohebisama_fc1",3,0,2,2)
  ShowMessage("\\n<白蛇様>あの一件で、姉上も流石に懲りたらしい。")
  ShowMessage("もう、あのような悪さはせんじゃろう。")
  0()



EVENT   24
 PAGE   1
  ShowMessageFace("kirin_fc1",2,0,2,1)
  ShowMessage("\\n<麒麟>儂は最高クラスの大妖怪だと言うのに……")
  0()
 PAGE   2
  // condition: variable 1060 >= 2
  0()



EVENT   25
 PAGE   1
  ShowMessageFace("mikolamia_fc1",2,0,2,1)
  ShowMessage("\\n<巫女ラミア>何が起きたのかさえ、分からない……")
  0()
 PAGE   2
  // condition: variable 1060 >= 2
  0()



EVENT   26
 PAGE   1
  ShowMessageFace("yukionna_fc1",2,0,2,1)
  ShowMessage("\\n<雪女>なんという剣士……")
  ShowMessage("動きが全く見えないなんて……")
  0()
 PAGE   2
  // condition: variable 1060 >= 2
  0()



EVENT   27
 PAGE   1
  ShowMessageFace("mikolamia_fc1",0,0,2,1)
  ShowMessage("\\n<巫女ラミア>ここは本来、男人禁制なのですよ……")
  ShowMessage("まあ、あまり固い事は言いませんが。")
  0()



EVENT   28
 PAGE   1
  ShowMessageFace("mikolamia_fc1",0,0,2,1)
  ShowMessage("\\n<巫女ラミア>清く正しく生きていますよ……昼間のうちは。")
  355("actor_label_jump")
  EndEventProcessing()
  DefineLabel("123")
  ShowMessageFace("sisccubus_fc1",1,0,2,2)
  ShowMessage("\\n<クリスティー>もちろん夜は、お楽しみですよね……？")
  ShowMessageFace("mikolamia_fc1",1,0,2,3)
  ShowMessage("\\n<巫女ラミア>もちろん！")
  EndEventProcessing()
  0()



EVENT   29
 PAGE   1
  ShowMessageFace("",0,0,2,1)
  ShowMessage("\\n<猫>にゃ～")
  355("actor_label_jump")
  EndEventProcessing()
  DefineLabel("222")
  ShowMessageFace("nekomata_fc1",2,0,2,2)
  ShowMessage("\\n<たま>にゃあ……♪")
  EndEventProcessing()
  0()



EVENT   30
 PAGE   1
  // condition: variable 1081 >= 3
  ShowMessageFace("kunoitielf2_fc2",1,0,2,1)
  ShowMessage("\\n<エルフ側近>勇者ルカ様ですね、姫がお待ちしております。")
  ShowMessage("こちらへどうぞ……")
  221()
  TeleportPlayer(0,513,41,34,6,2)
  ChangeSwitch(31,31,0)
  Wait(60)
  216(1)
  222()
  ChangeSwitch(2278,2278,0)
  0()
 PAGE   2
  // condition: switch 2278 is ON
  0()



EVENT   31
 PAGE   1
  // condition: variable 1081 >= 3
  0()
 PAGE   2
  // condition: variable 1081 >= 4
  0()



EVENT   32
 PAGE   1
  // condition: variable 1081 >= 3
  ShowMessageFace("",0,0,2,1)
  ShowMessage("\\n<エルフ鍛冶>姫のご意向で、しばらくここで仕事をさせてもらう。")
  ShowMessage("さて、どんなご用件だ？")
  ShowChoices(strings("Synthesis","Make Rainbow equipment","Talk"),0)
  IfPlayerPicksChoice(0,null)
   355("call_synthesize(20)")
   EndEventProcessing()
   0()
  IfPlayerPicksChoice(1,null)
   If(8,157)
    Shop(1,26,0,0,false)
    605(1,74,0,0)
    605(1,161,0,0)
    605(1,226,0,0)
    605(1,252,0,0)
    605(1,276,0,0)
    605(1,316,0,0)
    605(1,350,0,0)
    605(1,386,0,0)
    605(1,427,0,0)
    605(1,459,0,0)
    605(1,494,0,0)
    605(1,534,0,0)
    605(1,573,0,0)
    605(1,609,0,0)
    605(1,644,0,0)
    605(1,685,0,0)
    605(1,715,0,0)
    605(1,743,0,0)
    605(1,766,0,0)
    605(1,787,0,0)
    605(1,811,0,0)
    605(1,835,0,0)
    605(1,860,0,0)
    605(2,46,0,0)
    605(2,90,0,0)
    605(2,117,0,0)
    605(2,219,0,0)
    605(2,251,0,0)
    605(2,314,0,0)
    605(0,106,0,0)
    0()
   Else()
    ShowMessageFace("",0,0,2,2)
    ShowMessage("\\n<エルフ鍛冶>素材である虹の結晶がなければ、武具を造る事はできないぞ。")
    EndEventProcessing()
    0()
   EndIf()
   0()
  IfPlayerPicksChoice(2,null)
   ShowMessageFace("",0,0,2,3)
   ShowMessage("\\n<エルフ鍛冶>妖精の島には、私の妹がいる。")
   ShowMessage("共に鍛冶を志し腕を競っていたが、今も元気だろうか。")
   EndEventProcessing()
   0()
  404()
  0()



EVENT   33
 PAGE   1
  // condition: variable 1081 >= 3
  ShowMessageFace("",0,0,2,1)
  ShowMessage("\\n<エルフ商人>姫のご命令で、しばらくここで商売する事になりました。")
  ShowMessage("何がご入り用ですか？")
  Shop(0,2,0,0,false)
  605(0,13,0,0)
  605(0,17,0,0)
  605(0,21,0,0)
  605(0,76,0,0)
  605(0,80,0,0)
  605(1,274,0,0)
  605(2,268,0,0)
  605(2,1047,0,0)
  605(2,1057,0,0)
  605(2,1131,0,0)
  605(2,1139,0,0)
  605(2,1549,0,0)
  605(2,1551,0,0)
  605(2,1553,0,0)
  605(2,1555,0,0)
  605(2,1557,0,0)
  605(2,1559,0,0)
  605(2,1709,0,0)
  If(1,1005,0,19,0)
   If(4,66,0)
    If(0,2065,0)
     If(2,"A",1)
      ChangeSelfSwitch("A",0)
      ShowMessageFace("vgirl_fc1",0,0,2,2)
      ShowMessage("\\n<ヴァニラ>はじめまして、商人のヴァニラです。")
      ShowMessage("白聖石と黒闇石を、取引したいのですが……")
      ShowMessageFace("",0,0,2,3)
      ShowMessage("\\n<エルフ商人>里の商人は、エルフ以外とは取引をしません。")
      ShowMessage("でも、あなた達には便宜を図るよう申しつけられています。")
      ShowMessageFace("",0,0,2,4)
      ShowMessage("\\n<エルフ商人>そこで交換取引はいかがでしょう？")
      ShowMessage("現在、エルフの里にてとある貴族が「銀竜像」を求めているのです。")
      ShowMessageFace("vgirl_fc1",0,0,2,5)
      ShowMessage("\\n<ヴァニラ>「銀竜像」というと確か……")
      ShowMessage("あの黒のアリスが所持していたという美術品ですね。")
      ShowMessageFace("",0,0,2,6)
      ShowMessage("\\n<エルフ商人>この品は五百年前、黒のアリスが討たれた際に行方不明になりました。")
      ShowMessage("それをぜひ、世界を飛び回っているあなた達に探してもらいたいのです。")
      If(0,4,0)
       ShowMessageFace("alice_fc5",0,0,2,7)
       ShowMessage("\\n<アリス>黒のアリスが討たれ、行方不明となった品……")
       ShowMessage("いっそ、討たれる前に見つけた方が早いかもしれんな。")
       0()
      EndIf()
      If(0,5,0)
       ShowMessageFace("iriasu_fc4",2,0,2,8)
       ShowMessage("\\n<イリアス>黒のアリスが討たれ、行方不明となった品……")
       ShowMessage("いっそ、討たれる前に見つけた方が早いですね。")
       0()
      EndIf()
      EndEventProcessing()
      0()
     Else()
      If(8,553)
       ChangeInventory_Item(553,1,0,1)
       ShowMessageFace("",0,0,2,9)
       ShowMessage("\\n<エルフ商人>ああ、これは確かに「銀竜像」！")
       ShowMessage("もちろん、適正価格で買い取らせて頂きます。")
       250(bytes(0x04,0x08,0x6f,0x3a,0x0c,0x52,0x50,0x47,0x3a,0x3a,0x53,0x45,0x08,0x3a,0x0a,0x40,0x6e,0x61,0x6d,0x65,0x49,0x22,0x0a,0x49,0x74,0x65,0x6d,0x31,0x06,0x3a,0x06,0x45,0x54,0x3a,0x0b,0x40,0x70,0x69,0x74,0x63,0x68,0x69,0x69,0x3a,0x0c,0x40,0x76,0x6f,0x6c,0x75,0x6d,0x65,0x69,0x55))
       125(0,0,45000)
       ShowMessageFace("",0,0,2,10)
       ShowMessage("エルフ商人は銀竜像を45000ゴールドで買い取った！")
       ShowMessageFace("",0,0,2,11)
       ShowMessage("\\n<エルフ商人>それじゃあ約束通り、聖と闇の魔石を取引しましょう。")
       ShowMessage("価格の方は、そちらの申し出通りで問題ありません。")
       ShowMessageFace("vgirl_fc1",0,0,2,12)
       ShowMessage("\\n<ヴァニラ>ありがとうございます！")
       ShowMessage("今後ともよろしく……なのだ！")
       249(bytes(0x04,0x08,0x6f,0x3a,0x0c,0x52,0x50,0x47,0x3a,0x3a,0x4d,0x45,0x08,0x3a,0x0a,0x40,0x6e,0x61,0x6d,0x65,0x49,0x22,0x0c,0x66,0x61,0x6e,0x66,0x61,0x6c,0x65,0x06,0x3a,0x06,0x45,0x54,0x3a,0x0b,0x40,0x70,0x69,0x74,0x63,0x68,0x69,0x69,0x3a,0x0c,0x40,0x76,0x6f,0x6c,0x75,0x6d,0x65,0x69,0x69))
       ShowMessageFace("",0,0,2,13)
       ShowMessage("ヴァニラの店で白聖石と黒闇石を扱うようになった！")
       ChangeVariable(1005,1005,0,0,20)
       ChangeSwitch(2065,2065,1)
       Wait(60)
       EndEventProcessing()
       0()
      Else()
       ShowMessageFace("",0,0,2,14)
       ShowMessage("\\n<エルフ商人>交換取引はいかがでしょう？")
       ShowMessage("現在、エルフの里にてとある貴族が「銀竜像」を求めているのです。")
       ShowMessageFace("",0,0,2,15)
       ShowMessage("\\n<エルフ商人>この品は五百年前、黒のアリスが討たれた際に行方不明になりました。")
       ShowMessage("それをぜひ、世界を飛び回っているあなた達に探してもらいたいのです。")
       If(0,4,0)
        ShowMessageFace("alice_fc5",0,0,2,16)
        ShowMessage("\\n<アリス>黒のアリスが討たれ、行方不明となった品……")
        ShowMessage("いっそ、討たれる前に見つけた方が早いかもしれんな。")
        0()
       EndIf()
       If(0,5,0)
        ShowMessageFace("iriasu_fc4",2,0,2,17)
        ShowMessage("\\n<イリアス>黒のアリスが討たれ、行方不明となった品……")
        ShowMessage("いっそ、討たれる前に見つけた方が早いですね。")
        0()
       EndIf()
       EndEventProcessing()
       0()
      EndIf()
      0()
     EndIf()
     0()
    EndIf()
    0()
   EndIf()
   0()
  EndIf()
  0()



EVENT   34
 PAGE   1
  // condition: variable 1081 >= 3
  0()
 PAGE   2
  // condition: variable 1081 >= 4
  0()



EVENT   35
 PAGE   1
  // condition: switch 6 is ON
  // condition: switch 31 is ON
  // condition: variable 1081 >= 3
  0()
 PAGE   2
  // condition: variable 1081 >= 4
  0()



EVENT   36
 PAGE   1
  250(bytes(0x04,0x08,0x6f,0x3a,0x0c,0x52,0x50,0x47,0x3a,0x3a,0x53,0x45,0x08,0x3a,0x0a,0x40,0x6e,0x61,0x6d,0x65,0x49,0x22,0x0a,0x49,0x74,0x65,0x6d,0x31,0x06,0x3a,0x06,0x45,0x54,0x3a,0x0b,0x40,0x70,0x69,0x74,0x63,0x68,0x69,0x69,0x3a,0x0c,0x40,0x76,0x6f,0x6c,0x75,0x6d,0x65,0x69,0x55))
  ChangeSelfSwitch("A",0)
  ChangeInventory_Item(211,0,0,1)
  0()
 PAGE   2
  // condition: self-switch A is ON
  0()


