﻿


EVENT   1
 PAGE   1
  281(1)
  250(bytes(0x04,0x08,0x6f,0x3a,0x0c,0x52,0x50,0x47,0x3a,0x3a,0x53,0x45,0x08,0x3a,0x0a,0x40,0x6e,0x61,0x6d,0x65,0x49,0x22,0x09,0x4d,0x6f,0x76,0x65,0x06,0x3a,0x06,0x45,0x54,0x3a,0x0b,0x40,0x70,0x69,0x74,0x63,0x68,0x69,0x69,0x3a,0x0c,0x40,0x76,0x6f,0x6c,0x75,0x6d,0x65,0x69,0x55))
  TeleportPlayer(0,703,20,15,0,0)
  0()



EVENT   2
 PAGE   1
  281(1)
  250(bytes(0x04,0x08,0x6f,0x3a,0x0c,0x52,0x50,0x47,0x3a,0x3a,0x53,0x45,0x08,0x3a,0x0a,0x40,0x6e,0x61,0x6d,0x65,0x49,0x22,0x09,0x4d,0x6f,0x76,0x65,0x06,0x3a,0x06,0x45,0x54,0x3a,0x0b,0x40,0x70,0x69,0x74,0x63,0x68,0x69,0x69,0x3a,0x0c,0x40,0x76,0x6f,0x6c,0x75,0x6d,0x65,0x69,0x55))
  TeleportPlayer(0,708,28,31,0,0)
  0()



EVENT   3
 PAGE   1
  281(1)
  250(bytes(0x04,0x08,0x6f,0x3a,0x0c,0x52,0x50,0x47,0x3a,0x3a,0x53,0x45,0x08,0x3a,0x0a,0x40,0x6e,0x61,0x6d,0x65,0x49,0x22,0x09,0x4d,0x6f,0x76,0x65,0x06,0x3a,0x06,0x45,0x54,0x3a,0x0b,0x40,0x70,0x69,0x74,0x63,0x68,0x69,0x69,0x3a,0x0c,0x40,0x76,0x6f,0x6c,0x75,0x6d,0x65,0x69,0x55))
  TeleportPlayer(0,708,2,29,0,0)
  0()



EVENT   4
 PAGE   1
  281(1)
  250(bytes(0x04,0x08,0x6f,0x3a,0x0c,0x52,0x50,0x47,0x3a,0x3a,0x53,0x45,0x08,0x3a,0x0a,0x40,0x6e,0x61,0x6d,0x65,0x49,0x22,0x09,0x4d,0x6f,0x76,0x65,0x06,0x3a,0x06,0x45,0x54,0x3a,0x0b,0x40,0x70,0x69,0x74,0x63,0x68,0x69,0x69,0x3a,0x0c,0x40,0x76,0x6f,0x6c,0x75,0x6d,0x65,0x69,0x55))
  TeleportPlayer(0,708,5,23,0,0)
  0()



EVENT   5
 PAGE   1
  281(1)
  250(bytes(0x04,0x08,0x6f,0x3a,0x0c,0x52,0x50,0x47,0x3a,0x3a,0x53,0x45,0x08,0x3a,0x0a,0x40,0x6e,0x61,0x6d,0x65,0x49,0x22,0x09,0x4d,0x6f,0x76,0x65,0x06,0x3a,0x06,0x45,0x54,0x3a,0x0b,0x40,0x70,0x69,0x74,0x63,0x68,0x69,0x69,0x3a,0x0c,0x40,0x76,0x6f,0x6c,0x75,0x6d,0x65,0x69,0x55))
  TeleportPlayer(0,708,12,3,0,0)
  0()



EVENT   6
 PAGE   1
  250(bytes(0x04,0x08,0x6f,0x3a,0x0c,0x52,0x50,0x47,0x3a,0x3a,0x53,0x45,0x08,0x3a,0x0a,0x40,0x6e,0x61,0x6d,0x65,0x49,0x22,0x0a,0x43,0x68,0x65,0x73,0x74,0x06,0x3a,0x06,0x45,0x54,0x3a,0x0b,0x40,0x70,0x69,0x74,0x63,0x68,0x69,0x69,0x3a,0x0c,0x40,0x76,0x6f,0x6c,0x75,0x6d,0x65,0x69,0x55))
  205(0,bytes(0x04,0x08,0x6f,0x3a,0x13,0x52,0x50,0x47,0x3a,0x3a,0x4d,0x6f,0x76,0x65,0x52,0x6f,0x75,0x74,0x65,0x09,0x3a,0x0c,0x40,0x72,0x65,0x70,0x65,0x61,0x74,0x46,0x3a,0x0f,0x40,0x73,0x6b,0x69,0x70,0x70,0x61,0x62,0x6c,0x65,0x46,0x3a,0x0a,0x40,0x77,0x61,0x69,0x74,0x54,0x3a,0x0a,0x40,0x6c,0x69,0x73,0x74,0x5b,0x0b,0x6f,0x3a,0x15,0x52,0x50,0x47,0x3a,0x3a,0x4d,0x6f,0x76,0x65,0x43,0x6f,0x6d,0x6d,0x61,0x6e,0x64,0x07,0x3a,0x0a,0x40,0x63,0x6f,0x64,0x65,0x69,0x29,0x3a,0x10,0x40,0x70,0x61,0x72,0x61,0x6d,0x65,0x74,0x65,0x72,0x73,0x5b,0x00,0x6f,0x3b,0x0a,0x07,0x3b,0x0b,0x69,0x16,0x3b,0x0c,0x5b,0x00,0x6f,0x3b,0x0a,0x07,0x3b,0x0b,0x69,0x14,0x3b,0x0c,0x5b,0x06,0x69,0x08,0x6f,0x3b,0x0a,0x07,0x3b,0x0b,0x69,0x17,0x3b,0x0c,0x5b,0x00,0x6f,0x3b,0x0a,0x07,0x3b,0x0b,0x69,0x14,0x3b,0x0c,0x5b,0x06,0x69,0x08,0x6f,0x3b,0x0a,0x07,0x3b,0x0b,0x69,0x00,0x3b,0x0c,0x5b,0x00))
  ChangeSelfSwitch("A",0)
  250(bytes(0x04,0x08,0x6f,0x3a,0x0c,0x52,0x50,0x47,0x3a,0x3a,0x53,0x45,0x08,0x3a,0x0a,0x40,0x6e,0x61,0x6d,0x65,0x49,0x22,0x11,0x6d,0x6f,0x6e,0x5f,0x66,0x61,0x6e,0x66,0x61,0x6c,0x65,0x32,0x06,0x3a,0x06,0x45,0x54,0x3a,0x0b,0x40,0x70,0x69,0x74,0x63,0x68,0x69,0x69,0x3a,0x0c,0x40,0x76,0x6f,0x6c,0x75,0x6d,0x65,0x69,0x55))
  ChangeInventoryWeapon(156,0,0,1)
  Wait(120)
  PictureDisplay(5,"80_bonny_st02",0,0,0,0,100,100,0,0)
  PictureMove(5,null,0,0,0,0,100,100,255,0,30,true)
  ShowMessageFace("bonny_fc1",1,0,2,1)
  ShowMessage("\\n<ボニー>It's finally mine! This is the Dark Saber, Pirate Queen Roza's hidden treasure!")
  If(0,6,0)
   ShowMessageFace("sonia_fc2",2,0,2,2)
   ShowMessage("\\n<ソニア>Umm... It doesn't seem very powerful to me. It's a nice sword and all, but for a pirate queen's treasure...")
   0()
  Else()
   ShowMessageFace("ruka_fc1",0,0,2,3)
   ShowMessage("\\n<ルカ>It's definitely a nice sword, but it doesn't seem like it's worthy of being a pirate queen's treasure...")
   0()
  EndIf()
  If(0,4,0)
   ShowMessageFace("alice_fc5",0,0,2,4)
   ShowMessage("\\n<アリス>It's a fairly strong sword as-is, but if tempered properly, it could bring out considerable power.")
   0()
  EndIf()
  If(0,5,0)
   ShowMessageFace("iriasu_fc4",0,0,2,5)
   ShowMessage("\\n<イリアス>The potential of this sword is high, however. If tempered properly, the sword could live up to its reputation as a treasure.")
   0()
  EndIf()
  PictureDisplay(5,"80_bonny_st02",0,0,-150,0,100,100,255,0)
  PictureDisplay(6,"80_ashel_st02",0,0,150,0,100,100,255,0)
  ShowMessageFace("ashel_fc1",1,0,2,6)
  ShowMessage("\\n<アシェル>In any case, its quality is not a big deal.")
  ShowMessageFace("ashel_fc1",1,0,2,7)
  ShowMessage("\\n<アシェル>As Roza's descendant, it was important to milady just to have her treasure.")
  If(4,171,0)
   ShowMessageFace("lizardboss_fc1",0,0,2,8)
   ShowMessage("\\n<ミランダ>Yeah, that's how it is in the world of villains. Reputation is the greatest treasure of all.")
   0()
  EndIf()
  If(4,103,0)
   ShowMessageFace("kamuro_fc1",0,0,2,9)
   ShowMessage("\\n<かむろ>I see... Very educational.")
   0()
  EndIf()
  ShowMessageFace("ashel_fc1",1,0,2,10)
  ShowMessage("\\n<アシェル>News of this will quickly spread among pirates, which will increase the reputation of the Fishy Pirates.")
  If(4,72,0)
   ShowMessageFace("phoenix_fc1",4,0,2,11)
   ShowMessage("\\n<ミニ>Congratulations on your world debut! I wonder if the Don will hear about this too!?")
   0()
  EndIf()
  ShowMessageFace("bonny_fc1",1,0,2,12)
  ShowMessage("\\n<ボニー>Time for our triumphant return! Back to the MS Fish everyone!")
  If(4,53,0)
   ShowMessageFace("slime_fc1",0,0,2,13)
   ShowMessage("\\n<ライム>Aye aye, cap'n!")
   0()
  EndIf()
  PictureClear(5)
  PictureClear(6)
  ShowMessageFace("",0,0,2,14)
  ShowMessage("Luka and party exit the cave.")
  250(bytes(0x04,0x08,0x6f,0x3a,0x0c,0x52,0x50,0x47,0x3a,0x3a,0x53,0x45,0x08,0x3a,0x0a,0x40,0x6e,0x61,0x6d,0x65,0x49,0x22,0x09,0x4d,0x6f,0x76,0x65,0x06,0x3a,0x06,0x45,0x54,0x3a,0x0b,0x40,0x70,0x69,0x74,0x63,0x68,0x69,0x69,0x3a,0x0c,0x40,0x76,0x6f,0x6c,0x75,0x6d,0x65,0x69,0x55))
  TeleportPlayer(0,376,12,12,8,0)
  241(bytes(0x04,0x08,0x6f,0x3a,0x0d,0x52,0x50,0x47,0x3a,0x3a,0x42,0x47,0x4d,0x08,0x3a,0x0a,0x40,0x6e,0x61,0x6d,0x65,0x49,0x22,0x14,0x73,0x63,0x65,0x6e,0x65,0x5f,0x65,0x70,0x69,0x6c,0x6f,0x67,0x75,0x65,0x32,0x06,0x3a,0x06,0x45,0x54,0x3a,0x0c,0x40,0x76,0x6f,0x6c,0x75,0x6d,0x65,0x69,0x69,0x3a,0x0b,0x40,0x70,0x69,0x74,0x63,0x68,0x69,0x69))
  PictureDisplay(5,"80_bonny_st02",0,0,-150,0,100,100,0,0)
  PictureDisplay(6,"80_ashel_st02",0,0,150,0,100,100,0,0)
  PictureMove(5,null,0,0,-150,0,100,100,255,0,30,false)
  PictureMove(6,null,0,0,150,0,100,100,255,0,30,true)
  355("gain_medal(31)")
  ShowMessageFace("bonny_fc1",1,0,2,15)
  ShowMessage("\\n<ボニー>As promised, we'll take you to Grand Noah. What business do you have there, anyway?")
  ShowMessageFace("ruka_fc1",0,0,2,16)
  ShowMessage("\\n<ルカ>That's a long story--")
  ShowMessageFace("",0,0,2,17)
  ShowMessage("Luka told the pirates about the circumstances behind his adventure...")
  PictureDisplay(5,"80_bonny_st03",0,0,-150,0,100,100,255,0)
  ShowMessageFace("bonny_fc1",2,0,2,18)
  ShowMessage("\\n<ボニー>So you started your adventure to chase after your father... That's such a great story!")
  ShowMessageFace("ashel_fc1",1,0,2,19)
  ShowMessage("\\n<アシェル>Milady, this could be a chance to make a name for the Fishy Pirates. If we were able to save the world with them...")
  ShowMessageFace("bonny_fc1",2,0,2,20)
  ShowMessage("\\n<ボニー>It's settled then! We'll help you on your adventure! Let's search for your father together!")
  ShowMessageFace("ashel_fc1",1,0,2,21)
  ShowMessage("\\n<アシェル>This is our big chance! We'll become famous worldwide, and if it all works out, great heroes!")
  PictureClear(5)
  PictureClear(6)
  250(bytes(0x04,0x08,0x6f,0x3a,0x0c,0x52,0x50,0x47,0x3a,0x3a,0x53,0x45,0x08,0x3a,0x0a,0x40,0x6e,0x61,0x6d,0x65,0x49,0x22,0x11,0x6d,0x6f,0x6e,0x5f,0x66,0x61,0x6e,0x66,0x61,0x6c,0x65,0x33,0x06,0x3a,0x06,0x45,0x54,0x3a,0x0b,0x40,0x70,0x69,0x74,0x63,0x68,0x69,0x69,0x3a,0x0c,0x40,0x76,0x6f,0x6c,0x75,0x6d,0x65,0x69,0x55))
  ShowMessageFace("",0,0,2,22)
  ShowMessage("The two Fishy Pirates formally join your party!")
  ShowMessageFace("bonny_fc1",2,0,2,23)
  ShowMessage("\\n<ボニー>Oooh, such a great story...")
  ShowMessageFace("ashel_fc1",1,0,2,24)
  ShowMessage("\\n<アシェル>Fishy Pirates... Big chance...")
  If(0,6,0)
   ShowMessageFace("sonia_fc4",0,0,2,25)
   ShowMessage("\\n<ソニア>......")
   0()
  EndIf()
  221()
  ChangeSwitch(100,100,1)
  ChangeSwitch(1918,1918,0)
  ChangeVariable(1051,1051,0,0,5)
  ChangeVariable(1001,1001,0,0,22)
  ChangeVariable(1002,1002,0,0,20)
  314(0,0)
  TeleportVehicle(1,0,2,21,211)
  Wait(60)
  TeleportPlayer(0,2,20,211,6,2)
  222()
  250(bytes(0x04,0x08,0x6f,0x3a,0x0c,0x52,0x50,0x47,0x3a,0x3a,0x53,0x45,0x08,0x3a,0x0a,0x40,0x6e,0x61,0x6d,0x65,0x49,0x22,0x11,0x6d,0x6f,0x6e,0x5f,0x66,0x61,0x6e,0x66,0x61,0x6c,0x65,0x33,0x06,0x3a,0x06,0x45,0x54,0x3a,0x0b,0x40,0x70,0x69,0x74,0x63,0x68,0x69,0x69,0x3a,0x0c,0x40,0x76,0x6f,0x6c,0x75,0x6d,0x65,0x69,0x55))
  ShowMessageFace("",0,0,2,26)
  ShowMessage("You received the MS Fish!")
  If(1,56,0,0,0)
   ChangeVariable(56,56,0,0,2)
   ShowMessageFace("",0,0,2,27)
   ShowMessage("Your party member size has increased by 2!")
   ShowMessage("You can now take a total of 10 characters with you!")
   0()
  EndIf()
  ShowMessageFace("ashel_fc1",1,0,2,28)
  ShowMessage("\\n<アシェル>We'll entrust operation of the MS Fish to you. From here on, our destinies are intertwined.")
  ShowMessageFace("bonny_fc1",1,0,2,29)
  ShowMessage("\\n<ボニー>Pirates always keep their word! We'll follow you anywhere!")
  If(4,53,0)
   ShowMessageFace("slime_fc1",0,0,2,30)
   ShowMessage("\\n<ライム>Yay! The cap'n is coming with us!")
   0()
  EndIf()
  If(4,171,0)
   ShowMessageFace("lizardboss_fc1",0,0,2,31)
   ShowMessage("\\n<ミランダ>First you recruited us bandits, now pirates too? The party is going to be full of bad guys before long.")
   ShowMessageFace("bonny_fc1",0,0,2,32)
   ShowMessage("\\n<ボニー>The Fishy Pirates don't do anything bad! We've never targeted anyone but the navy and villains!")
   0()
  EndIf()
  ShowMessageFace("ashel_fc1",0,0,2,33)
  ShowMessage("\\n<アシェル>Before you take the helm, let me provide a few instructions. First, you can press buttons 7 or 8 to open the map while on the ocean.")
  ShowMessageFace("ashel_fc1",0,0,2,34)
  ShowMessage("\\n<アシェル>Your location will be marked with a yellow circle. Always knowing where you are is the most important rule of sailing.")
  ShowMessageFace("ashel_fc1",0,0,2,35)
  ShowMessage("\\n<アシェル>If you lose track of the ship, use a harpy feather or warp magic. If you warp to a port or the navy headquarters, the ship will warp there with you.")
  ShowMessageFace("ashel_fc1",0,0,2,36)
  ShowMessage("\\n<アシェル>One more thing... This is really for our benefit, but there's another operation we'd appreciate your assistance with.")
  ShowMessageFace("bonny_fc1",0,0,2,37)
  ShowMessage("\\n<ボニー>Oh, the flag that was stolen?\nWith Luka's help, I bet we can take it back from the navy!")
  ShowMessageFace("ruka_fc1",0,0,2,38)
  ShowMessage("\\n<ルカ>Huh? What are you talking about?")
  ShowMessageFace("ashel_fc1",0,0,2,39)
  ShowMessage("\\n<アシェル>A while back, we had a little skirmish with a naval warship, and they managed to steal our pirate flag.")
  ShowMessageFace("ashel_fc1",0,0,2,40)
  ShowMessage("\\n<アシェル>We've wanted to get it back from them, but storming their headquarters isn't so easy for us, you see?")
  If(0,6,0)
   ShowMessageFace("sonia_fc2",2,0,2,41)
   ShowMessage("\\n<ソニア>So you want us to launch a raid on the navy headquarters... That's going to cause a huge uproar.")
   0()
  Else()
   ShowMessageFace("ruka_fc1",0,0,2,42)
   ShowMessage("\\n<ルカ>So you want us to launch a raid on the navy headquarters...")
   0()
  EndIf()
  ShowMessageFace("ashel_fc1",0,0,2,43)
  ShowMessage("\\n<アシェル>It doesn't have to be done immediately, but take some time to consider recovering our flag.")
  ShowMessageFace("ashel_fc1",1,0,2,44)
  ShowMessage("\\n<アシェル>Also, the navy headquarters stores an [Oceanic Business Permit]. Steal that and you'll be able to take on a few nautical jobs.")
  ShowMessageFace("bonny_fc1",1,0,2,45)
  ShowMessage("\\n<ボニー>That's not a bad deal for you guys. I'm looking forward to the day we storm the navy headquarters!")
  If(4,53,0)
   ShowMessageFace("slime_fc1",0,0,2,46)
   ShowMessage("\\n<ライム>Aye aye, cap'n!")
   ShowMessageFace("bonny_fc1",1,0,2,47)
   ShowMessage("\\n<ボニー>Yeah! You're an excellent crew member, Lime.")
   0()
  EndIf()
  If(0,4,0)
   ShowMessageFace("alice_fc5",0,0,2,48)
   ShowMessage("\\n<アリス>Hmm... The pirate flag aside, the job change item is tempting. Raiding the navy headquarters doesn't sound like a bad idea, does it?")
   0()
  EndIf()
  If(0,5,0)
   ShowMessageFace("iriasu_fc4",0,0,2,49)
   ShowMessage("\\n<イリアス>I have no interest in a pirate flag, but I want the job change item. Luka, can we raid the navy headquarters?")
   0()
  EndIf()
  ShowMessageFace("ruka_fc1",0,0,2,50)
  ShowMessage("\\n<ルカ>Sure, I'll think about it.")
  ShowMessageFace("",0,0,2,51)
  ShowMessage("Heading to the Noah region to the northwest is our priority, but it might not be bad to raid the navy headquarters before that.")
  EndEventProcessing()
  0()
 PAGE   2
  // condition: self-switch A is ON
  0()



EVENT   7
 PAGE   1
  250(bytes(0x04,0x08,0x6f,0x3a,0x0c,0x52,0x50,0x47,0x3a,0x3a,0x53,0x45,0x08,0x3a,0x0a,0x40,0x6e,0x61,0x6d,0x65,0x49,0x22,0x0a,0x43,0x68,0x65,0x73,0x74,0x06,0x3a,0x06,0x45,0x54,0x3a,0x0b,0x40,0x70,0x69,0x74,0x63,0x68,0x69,0x69,0x3a,0x0c,0x40,0x76,0x6f,0x6c,0x75,0x6d,0x65,0x69,0x55))
  205(0,bytes(0x04,0x08,0x6f,0x3a,0x13,0x52,0x50,0x47,0x3a,0x3a,0x4d,0x6f,0x76,0x65,0x52,0x6f,0x75,0x74,0x65,0x09,0x3a,0x0c,0x40,0x72,0x65,0x70,0x65,0x61,0x74,0x46,0x3a,0x0f,0x40,0x73,0x6b,0x69,0x70,0x70,0x61,0x62,0x6c,0x65,0x46,0x3a,0x0a,0x40,0x77,0x61,0x69,0x74,0x54,0x3a,0x0a,0x40,0x6c,0x69,0x73,0x74,0x5b,0x0b,0x6f,0x3a,0x15,0x52,0x50,0x47,0x3a,0x3a,0x4d,0x6f,0x76,0x65,0x43,0x6f,0x6d,0x6d,0x61,0x6e,0x64,0x07,0x3a,0x0a,0x40,0x63,0x6f,0x64,0x65,0x69,0x29,0x3a,0x10,0x40,0x70,0x61,0x72,0x61,0x6d,0x65,0x74,0x65,0x72,0x73,0x5b,0x00,0x6f,0x3b,0x0a,0x07,0x3b,0x0b,0x69,0x16,0x3b,0x0c,0x5b,0x00,0x6f,0x3b,0x0a,0x07,0x3b,0x0b,0x69,0x14,0x3b,0x0c,0x5b,0x06,0x69,0x08,0x6f,0x3b,0x0a,0x07,0x3b,0x0b,0x69,0x17,0x3b,0x0c,0x5b,0x00,0x6f,0x3b,0x0a,0x07,0x3b,0x0b,0x69,0x14,0x3b,0x0c,0x5b,0x06,0x69,0x08,0x6f,0x3b,0x0a,0x07,0x3b,0x0b,0x69,0x00,0x3b,0x0c,0x5b,0x00))
  ChangeSelfSwitch("A",0)
  ChangeInventory_Item(29,0,0,1)
  0()
 PAGE   2
  // condition: self-switch A is ON
  0()



EVENT   8
 PAGE   1
  250(bytes(0x04,0x08,0x6f,0x3a,0x0c,0x52,0x50,0x47,0x3a,0x3a,0x53,0x45,0x08,0x3a,0x0a,0x40,0x6e,0x61,0x6d,0x65,0x49,0x22,0x0a,0x43,0x68,0x65,0x73,0x74,0x06,0x3a,0x06,0x45,0x54,0x3a,0x0b,0x40,0x70,0x69,0x74,0x63,0x68,0x69,0x69,0x3a,0x0c,0x40,0x76,0x6f,0x6c,0x75,0x6d,0x65,0x69,0x55))
  205(0,bytes(0x04,0x08,0x6f,0x3a,0x13,0x52,0x50,0x47,0x3a,0x3a,0x4d,0x6f,0x76,0x65,0x52,0x6f,0x75,0x74,0x65,0x09,0x3a,0x0c,0x40,0x72,0x65,0x70,0x65,0x61,0x74,0x46,0x3a,0x0f,0x40,0x73,0x6b,0x69,0x70,0x70,0x61,0x62,0x6c,0x65,0x46,0x3a,0x0a,0x40,0x77,0x61,0x69,0x74,0x54,0x3a,0x0a,0x40,0x6c,0x69,0x73,0x74,0x5b,0x0b,0x6f,0x3a,0x15,0x52,0x50,0x47,0x3a,0x3a,0x4d,0x6f,0x76,0x65,0x43,0x6f,0x6d,0x6d,0x61,0x6e,0x64,0x07,0x3a,0x0a,0x40,0x63,0x6f,0x64,0x65,0x69,0x29,0x3a,0x10,0x40,0x70,0x61,0x72,0x61,0x6d,0x65,0x74,0x65,0x72,0x73,0x5b,0x00,0x6f,0x3b,0x0a,0x07,0x3b,0x0b,0x69,0x16,0x3b,0x0c,0x5b,0x00,0x6f,0x3b,0x0a,0x07,0x3b,0x0b,0x69,0x14,0x3b,0x0c,0x5b,0x06,0x69,0x08,0x6f,0x3b,0x0a,0x07,0x3b,0x0b,0x69,0x17,0x3b,0x0c,0x5b,0x00,0x6f,0x3b,0x0a,0x07,0x3b,0x0b,0x69,0x14,0x3b,0x0c,0x5b,0x06,0x69,0x08,0x6f,0x3b,0x0a,0x07,0x3b,0x0b,0x69,0x00,0x3b,0x0c,0x5b,0x00))
  ChangeSelfSwitch("A",0)
  125(0,0,6600)
  ShowMessageFace("",0,0,2,1)
  ShowMessage("6600\\G acquired!")
  0()
 PAGE   2
  // condition: self-switch A is ON
  0()



EVENT   9
 PAGE   1
  250(bytes(0x04,0x08,0x6f,0x3a,0x0c,0x52,0x50,0x47,0x3a,0x3a,0x53,0x45,0x08,0x3a,0x0a,0x40,0x6e,0x61,0x6d,0x65,0x49,0x22,0x0a,0x43,0x68,0x65,0x73,0x74,0x06,0x3a,0x06,0x45,0x54,0x3a,0x0b,0x40,0x70,0x69,0x74,0x63,0x68,0x69,0x69,0x3a,0x0c,0x40,0x76,0x6f,0x6c,0x75,0x6d,0x65,0x69,0x55))
  205(0,bytes(0x04,0x08,0x6f,0x3a,0x13,0x52,0x50,0x47,0x3a,0x3a,0x4d,0x6f,0x76,0x65,0x52,0x6f,0x75,0x74,0x65,0x09,0x3a,0x0c,0x40,0x72,0x65,0x70,0x65,0x61,0x74,0x46,0x3a,0x0f,0x40,0x73,0x6b,0x69,0x70,0x70,0x61,0x62,0x6c,0x65,0x46,0x3a,0x0a,0x40,0x77,0x61,0x69,0x74,0x54,0x3a,0x0a,0x40,0x6c,0x69,0x73,0x74,0x5b,0x0b,0x6f,0x3a,0x15,0x52,0x50,0x47,0x3a,0x3a,0x4d,0x6f,0x76,0x65,0x43,0x6f,0x6d,0x6d,0x61,0x6e,0x64,0x07,0x3a,0x0a,0x40,0x63,0x6f,0x64,0x65,0x69,0x29,0x3a,0x10,0x40,0x70,0x61,0x72,0x61,0x6d,0x65,0x74,0x65,0x72,0x73,0x5b,0x00,0x6f,0x3b,0x0a,0x07,0x3b,0x0b,0x69,0x16,0x3b,0x0c,0x5b,0x00,0x6f,0x3b,0x0a,0x07,0x3b,0x0b,0x69,0x14,0x3b,0x0c,0x5b,0x06,0x69,0x08,0x6f,0x3b,0x0a,0x07,0x3b,0x0b,0x69,0x17,0x3b,0x0c,0x5b,0x00,0x6f,0x3b,0x0a,0x07,0x3b,0x0b,0x69,0x14,0x3b,0x0c,0x5b,0x06,0x69,0x08,0x6f,0x3b,0x0a,0x07,0x3b,0x0b,0x69,0x00,0x3b,0x0c,0x5b,0x00))
  ChangeSelfSwitch("A",0)
  ChangeInventoryArmor(134,0,0,1)
  0()
 PAGE   2
  // condition: self-switch A is ON
  0()



EVENT   10
 PAGE   1
  250(bytes(0x04,0x08,0x6f,0x3a,0x0c,0x52,0x50,0x47,0x3a,0x3a,0x53,0x45,0x08,0x3a,0x0a,0x40,0x6e,0x61,0x6d,0x65,0x49,0x22,0x0a,0x43,0x68,0x65,0x73,0x74,0x06,0x3a,0x06,0x45,0x54,0x3a,0x0b,0x40,0x70,0x69,0x74,0x63,0x68,0x69,0x69,0x3a,0x0c,0x40,0x76,0x6f,0x6c,0x75,0x6d,0x65,0x69,0x55))
  205(0,bytes(0x04,0x08,0x6f,0x3a,0x13,0x52,0x50,0x47,0x3a,0x3a,0x4d,0x6f,0x76,0x65,0x52,0x6f,0x75,0x74,0x65,0x09,0x3a,0x0c,0x40,0x72,0x65,0x70,0x65,0x61,0x74,0x46,0x3a,0x0f,0x40,0x73,0x6b,0x69,0x70,0x70,0x61,0x62,0x6c,0x65,0x46,0x3a,0x0a,0x40,0x77,0x61,0x69,0x74,0x54,0x3a,0x0a,0x40,0x6c,0x69,0x73,0x74,0x5b,0x0b,0x6f,0x3a,0x15,0x52,0x50,0x47,0x3a,0x3a,0x4d,0x6f,0x76,0x65,0x43,0x6f,0x6d,0x6d,0x61,0x6e,0x64,0x07,0x3a,0x0a,0x40,0x63,0x6f,0x64,0x65,0x69,0x29,0x3a,0x10,0x40,0x70,0x61,0x72,0x61,0x6d,0x65,0x74,0x65,0x72,0x73,0x5b,0x00,0x6f,0x3b,0x0a,0x07,0x3b,0x0b,0x69,0x16,0x3b,0x0c,0x5b,0x00,0x6f,0x3b,0x0a,0x07,0x3b,0x0b,0x69,0x14,0x3b,0x0c,0x5b,0x06,0x69,0x08,0x6f,0x3b,0x0a,0x07,0x3b,0x0b,0x69,0x17,0x3b,0x0c,0x5b,0x00,0x6f,0x3b,0x0a,0x07,0x3b,0x0b,0x69,0x14,0x3b,0x0c,0x5b,0x06,0x69,0x08,0x6f,0x3b,0x0a,0x07,0x3b,0x0b,0x69,0x00,0x3b,0x0c,0x5b,0x00))
  ChangeSelfSwitch("A",0)
  ChangeInventoryWeapon(219,0,0,1)
  0()
 PAGE   2
  // condition: self-switch A is ON
  0()



EVENT   11
 PAGE   1
  If(12,"unlock_level < 1")
   ShowMessageFace("",0,0,2,1)
   ShowMessage("The chest is locked.")
   EndEventProcessing()
   0()
  EndIf()
  250(bytes(0x04,0x08,0x6f,0x3a,0x0c,0x52,0x50,0x47,0x3a,0x3a,0x53,0x45,0x08,0x3a,0x0a,0x40,0x6e,0x61,0x6d,0x65,0x49,0x22,0x0a,0x43,0x68,0x65,0x73,0x74,0x06,0x3a,0x06,0x45,0x54,0x3a,0x0b,0x40,0x70,0x69,0x74,0x63,0x68,0x69,0x69,0x3a,0x0c,0x40,0x76,0x6f,0x6c,0x75,0x6d,0x65,0x69,0x55))
  205(0,bytes(0x04,0x08,0x6f,0x3a,0x13,0x52,0x50,0x47,0x3a,0x3a,0x4d,0x6f,0x76,0x65,0x52,0x6f,0x75,0x74,0x65,0x09,0x3a,0x0c,0x40,0x72,0x65,0x70,0x65,0x61,0x74,0x46,0x3a,0x0f,0x40,0x73,0x6b,0x69,0x70,0x70,0x61,0x62,0x6c,0x65,0x46,0x3a,0x0a,0x40,0x77,0x61,0x69,0x74,0x54,0x3a,0x0a,0x40,0x6c,0x69,0x73,0x74,0x5b,0x0b,0x6f,0x3a,0x15,0x52,0x50,0x47,0x3a,0x3a,0x4d,0x6f,0x76,0x65,0x43,0x6f,0x6d,0x6d,0x61,0x6e,0x64,0x07,0x3a,0x0a,0x40,0x63,0x6f,0x64,0x65,0x69,0x29,0x3a,0x10,0x40,0x70,0x61,0x72,0x61,0x6d,0x65,0x74,0x65,0x72,0x73,0x5b,0x00,0x6f,0x3b,0x0a,0x07,0x3b,0x0b,0x69,0x16,0x3b,0x0c,0x5b,0x00,0x6f,0x3b,0x0a,0x07,0x3b,0x0b,0x69,0x14,0x3b,0x0c,0x5b,0x06,0x69,0x08,0x6f,0x3b,0x0a,0x07,0x3b,0x0b,0x69,0x17,0x3b,0x0c,0x5b,0x00,0x6f,0x3b,0x0a,0x07,0x3b,0x0b,0x69,0x14,0x3b,0x0c,0x5b,0x06,0x69,0x08,0x6f,0x3b,0x0a,0x07,0x3b,0x0b,0x69,0x00,0x3b,0x0c,0x5b,0x00))
  ChangeSelfSwitch("A",0)
  ChangeInventoryWeapon(97,0,0,1)
  0()
 PAGE   2
  // condition: self-switch A is ON
  0()



EVENT   12
 PAGE   1
  250(bytes(0x04,0x08,0x6f,0x3a,0x0c,0x52,0x50,0x47,0x3a,0x3a,0x53,0x45,0x08,0x3a,0x0a,0x40,0x6e,0x61,0x6d,0x65,0x49,0x22,0x0a,0x43,0x68,0x65,0x73,0x74,0x06,0x3a,0x06,0x45,0x54,0x3a,0x0b,0x40,0x70,0x69,0x74,0x63,0x68,0x69,0x69,0x3a,0x0c,0x40,0x76,0x6f,0x6c,0x75,0x6d,0x65,0x69,0x55))
  205(0,bytes(0x04,0x08,0x6f,0x3a,0x13,0x52,0x50,0x47,0x3a,0x3a,0x4d,0x6f,0x76,0x65,0x52,0x6f,0x75,0x74,0x65,0x09,0x3a,0x0c,0x40,0x72,0x65,0x70,0x65,0x61,0x74,0x46,0x3a,0x0f,0x40,0x73,0x6b,0x69,0x70,0x70,0x61,0x62,0x6c,0x65,0x46,0x3a,0x0a,0x40,0x77,0x61,0x69,0x74,0x54,0x3a,0x0a,0x40,0x6c,0x69,0x73,0x74,0x5b,0x0b,0x6f,0x3a,0x15,0x52,0x50,0x47,0x3a,0x3a,0x4d,0x6f,0x76,0x65,0x43,0x6f,0x6d,0x6d,0x61,0x6e,0x64,0x07,0x3a,0x0a,0x40,0x63,0x6f,0x64,0x65,0x69,0x29,0x3a,0x10,0x40,0x70,0x61,0x72,0x61,0x6d,0x65,0x74,0x65,0x72,0x73,0x5b,0x00,0x6f,0x3b,0x0a,0x07,0x3b,0x0b,0x69,0x16,0x3b,0x0c,0x5b,0x00,0x6f,0x3b,0x0a,0x07,0x3b,0x0b,0x69,0x14,0x3b,0x0c,0x5b,0x06,0x69,0x08,0x6f,0x3b,0x0a,0x07,0x3b,0x0b,0x69,0x17,0x3b,0x0c,0x5b,0x00,0x6f,0x3b,0x0a,0x07,0x3b,0x0b,0x69,0x14,0x3b,0x0c,0x5b,0x06,0x69,0x08,0x6f,0x3b,0x0a,0x07,0x3b,0x0b,0x69,0x00,0x3b,0x0c,0x5b,0x00))
  ChangeSelfSwitch("A",0)
  ChangeInventory_Item(204,0,0,1)
  0()
 PAGE   2
  // condition: self-switch A is ON
  0()



EVENT   13
 PAGE   1
  250(bytes(0x04,0x08,0x6f,0x3a,0x0c,0x52,0x50,0x47,0x3a,0x3a,0x53,0x45,0x08,0x3a,0x0a,0x40,0x6e,0x61,0x6d,0x65,0x49,0x22,0x0a,0x43,0x68,0x65,0x73,0x74,0x06,0x3a,0x06,0x45,0x54,0x3a,0x0b,0x40,0x70,0x69,0x74,0x63,0x68,0x69,0x69,0x3a,0x0c,0x40,0x76,0x6f,0x6c,0x75,0x6d,0x65,0x69,0x55))
  205(0,bytes(0x04,0x08,0x6f,0x3a,0x13,0x52,0x50,0x47,0x3a,0x3a,0x4d,0x6f,0x76,0x65,0x52,0x6f,0x75,0x74,0x65,0x09,0x3a,0x0c,0x40,0x72,0x65,0x70,0x65,0x61,0x74,0x46,0x3a,0x0f,0x40,0x73,0x6b,0x69,0x70,0x70,0x61,0x62,0x6c,0x65,0x46,0x3a,0x0a,0x40,0x77,0x61,0x69,0x74,0x54,0x3a,0x0a,0x40,0x6c,0x69,0x73,0x74,0x5b,0x0b,0x6f,0x3a,0x15,0x52,0x50,0x47,0x3a,0x3a,0x4d,0x6f,0x76,0x65,0x43,0x6f,0x6d,0x6d,0x61,0x6e,0x64,0x07,0x3a,0x0a,0x40,0x63,0x6f,0x64,0x65,0x69,0x29,0x3a,0x10,0x40,0x70,0x61,0x72,0x61,0x6d,0x65,0x74,0x65,0x72,0x73,0x5b,0x00,0x6f,0x3b,0x0a,0x07,0x3b,0x0b,0x69,0x16,0x3b,0x0c,0x5b,0x00,0x6f,0x3b,0x0a,0x07,0x3b,0x0b,0x69,0x14,0x3b,0x0c,0x5b,0x06,0x69,0x08,0x6f,0x3b,0x0a,0x07,0x3b,0x0b,0x69,0x17,0x3b,0x0c,0x5b,0x00,0x6f,0x3b,0x0a,0x07,0x3b,0x0b,0x69,0x14,0x3b,0x0c,0x5b,0x06,0x69,0x08,0x6f,0x3b,0x0a,0x07,0x3b,0x0b,0x69,0x00,0x3b,0x0c,0x5b,0x00))
  ChangeSelfSwitch("A",0)
  ChangeInventory_Item(202,0,0,1)
  0()
 PAGE   2
  // condition: self-switch A is ON
  0()



EVENT   14
 PAGE   1
  ShowMessageFace("tatunoko_k_fc1",2,0,2,1)
  ShowMessage("\\n<Sea Horse Marine>I got lost...\nCan we call a truce?")
  355("actor_label_jump")
  EndEventProcessing()
  DefineLabel("58")
  ShowMessageFace("inp_fc2",0,0,2,2)
  ShowMessage("\\n<レミ>...are you okay?")
  EndEventProcessing()
  DefineLabel("66")
  ShowMessageFace("vgirl_fc1",0,0,2,3)
  ShowMessage("\\n<ヴァニラ>What a useless marine...")
  EndEventProcessing()
  DefineLabel("130")
  ShowMessageFace("ghost_fc1",0,0,2,4)
  ShowMessage("\\n<キャリー>I'm always lost...")
  EndEventProcessing()
  0()
 PAGE   2
  // condition: switch 2150 is ON
  0()



EVENT   15
 PAGE   1
  ChangeSelfSwitch("A",0)
  ShowMessageFace("bonny_fc1",1,0,2,1)
  ShowMessage("\\n<ボニー>Roza's treasure must be just ahead!")
  If(4,66,0)
   ShowMessageFace("vgirl_fc1",0,0,2,2)
   ShowMessage("\\n<ヴァニラ>I wonder what kind of treasure a legendary pirate queen would leave behind. Weapons? Armor? Precious items?")
   0()
  EndIf()
  ShowMessageFace("ashel_fc1",1,0,2,3)
  ShowMessage("\\n<アシェル>According to records, it's a valuable weapon. Perhaps even the one Roza herself wielded...")
  0()
 PAGE   2
  // condition: self-switch A is ON
  0()
