=begin
=ベース/Scene

ここではSceneを中心に扱います


==更新履歴
  Date     Version Author Comment
==14/12/13 2.0.0   トリス 統合A～E A B
==14/12/19 2.0.1   トリス 統合F～I F G
==15/09/03 2.0.2   トリス 統合J～U J K M P Q R T U
==17/05/16 2.0.4   トリス 統合V～W V

=end

#==============================================================================
# ■ Scene_Base
#==============================================================================
class Scene_Base
  #--------------------------------------------------------------------------
  # ● フレーム更新（基本）
  #--------------------------------------------------------------------------
  def update_basic
    Graphics.update
    Audio.update 
    Input.update
    update_all_windows
  end
end

#==============================================================================
# ■ Scene_Title
#==============================================================================
class Scene_Title < Scene_Base
  #--------------------------------------------------------------------------
  # ● コマンド［ニューゲーム］
  #--------------------------------------------------------------------------
  def command_new_game
    DataManager.setup_new_game
    close_command_window
    fadeout_all
    $game_map.autoplay
    $game_switches[NWConst::Sw::ON_GAME_START] = true
    SceneManager.goto(Scene_Map)
  end
end

#==============================================================================
# ■ Scene_Load
#==============================================================================
class Scene_Load < Scene_File
  #--------------------------------------------------------------------------
  # ● ロード成功時の処理
  #--------------------------------------------------------------------------
  def on_load_success
    Sound.play_load
    fadeout_all
    $game_system.on_after_load
    $game_switches[NWConst::Sw::ON_GAME_START] = true
    SceneManager.goto(Scene_Map)
  end
end

#==============================================================================
# ■ Scene_Map
#==============================================================================
class Scene_Map < Scene_Base
  #--------------------------------------------------------------------------
  # ● 開始処理
  #--------------------------------------------------------------------------
  alias :trial_error_start :start
  def start
    return process_trial_error if $game_system.party_lose_count.nil?
    trial_error_start
    $game_temp.event_abort = false
  end
  #--------------------------------------------------------------------------
  # ● 引継ぎ不能時の処理
  #--------------------------------------------------------------------------
  def process_trial_error
    text = "このセーブデータは、引継ぎ不能な体験版で作成されたものです"
    text += "\n製品版では使用できないので、ニューゲームから開始してください"
    msgbox text
    SceneManager.exit
  end
  #--------------------------------------------------------------------------
  # ○ 全ウィンドウの作成
  #--------------------------------------------------------------------------
  def create_all_windows
    create_message_window
    create_scroll_text_window
    create_location_window
    create_simple_status_window
    create_gain_medal_window
    create_skillname_window
  end
  #--------------------------------------------------------------------------
  # ● 簡易ステータスウィンドウの作成
  #--------------------------------------------------------------------------
  def create_simple_status_window
    @simple_status_window = Window_SimpleStatus.new($game_actors[NWConst::Actor::LUCA])
    @simple_status_window.openness = 0
  end
  #--------------------------------------------------------------------------
  # ● スキル名ウィンドウの作成
  #--------------------------------------------------------------------------
  def create_skillname_window
    @sname_window = Window_SkillName.new
  end
  #--------------------------------------------------------------------------
  # ● 獲得メダルウィンドウの作成
  #--------------------------------------------------------------------------
  def create_gain_medal_window
    @gain_medal_window = Window_GainMedal.new
  end
end


#==============================================================================
# ■ Scene_Menu
#==============================================================================
class Scene_Menu < Scene_MenuBase
  #--------------------------------------------------------------------------
  # ○ コマンドウィンドウの作成
  #--------------------------------------------------------------------------
  def create_command_window
    @command_window = Window_MenuCommand.new
    @command_window.set_handler(:item,      method(:command_item))
    @command_window.set_handler(:skill,     method(:command_personal))
    @command_window.set_handler(:equip,     method(:command_personal))
    @command_window.set_handler(:status,    method(:command_personal))
    @command_window.set_handler(:formation, method(:command_formation))
    @command_window.set_handler(:save,      method(:command_save))
    @command_window.set_handler(:game_end,  method(:command_game_end))
    @command_window.set_handler(:cancel,    method(:return_scene))
    @command_window.set_handler(:ability, method(:command_personal))
  end  
  #--------------------------------------------------------------------------
  # ○ コマンド［スキル］［装備］［ステータス］
  #--------------------------------------------------------------------------
  def command_personal
    @status_window.select(0)
    @status_window.activate
    @status_window.set_handler(:ok,     method(:on_personal_ok))
    @status_window.set_handler(:cancel, method(:on_personal_cancel))
  end
  #--------------------------------------------------------------------------
  # ○ コマンド［並び替え］
  #--------------------------------------------------------------------------
  def command_formation
    @status_window.select(0)
    @status_window.activate
    @status_window.set_handler(:ok,     method(:on_formation_ok))
    @status_window.set_handler(:cancel, method(:on_formation_cancel))
  end
  #--------------------------------------------------------------------------
  # ○ 個人コマンド［決定］
  #--------------------------------------------------------------------------
  def on_personal_ok
    Sound.play_ok
    case @command_window.current_symbol
    when :skill
      SceneManager.call(Scene_Skill)
    when :equip
      SceneManager.call(Scene_Equip)
    when :status
      SceneManager.call(Scene_Status)
    when :ability
      SceneManager.call(Scene_Ability)
    end
  end
  #--------------------------------------------------------------------------
  # ○ 並び替え［決定］
  #--------------------------------------------------------------------------
  def on_formation_ok
    if @status_window.pending_index >= 0
      Sound.play_ok
      $game_party.swap_order(@status_window.index, @status_window.pending_index)
      @status_window.pending_index = -1
      @status_window.redraw_item(@status_window.index)
    else
      Sound.play_ok
      @status_window.pending_index = @status_window.index
    end
    @status_window.activate
  end
  #--------------------------------------------------------------------------
  # ○ 並び替え［キャンセル］
  #--------------------------------------------------------------------------
  def on_formation_cancel
    Sound.play_cancel
    if @status_window.pending_index >= 0
      @status_window.pending_index = -1
      @status_window.activate
    else
      @status_window.unselect
      @command_window.activate
    end
  end  
end

#==============================================================================
# ■ Scene_ItemBase
#==============================================================================
class Scene_ItemBase < Scene_MenuBase
  #--------------------------------------------------------------------------
  # ● アイテムの使用
  #--------------------------------------------------------------------------
  def use_item
    play_se_for_item
    user.use_item(item)
    use_item_to_actors
		user.item_one_use_apply(item, item_target_actors, self)
    check_common_event
    check_gameover
    @actor_window.refresh
  end
end

#==============================================================================
# ■ Scene_Skill
#==============================================================================
class Scene_Skill < Scene_ItemBase
  #--------------------------------------------------------------------------
  # ● 開始処理
  #--------------------------------------------------------------------------
  def start
    super
    create_help_window
    create_command_window
    create_status_window
    create_item_window
    create_key_help_window
  end
  #--------------------------------------------------------------------------
  # ● 操作ヘルプウィンドウの生成
  #--------------------------------------------------------------------------
  def create_key_help_window
    @key_help_window = Window_Help_Color.new(2)
    @key_help_window.y = Graphics.height - @key_help_window.height
    @key_help_window.viewport = @viewport
    @key_help_window.set_text(Help.skill_type_key)
  end
  #--------------------------------------------------------------------------
  # ● フレーム更新
  #--------------------------------------------------------------------------
  def update
    super
    @key_help_window.set_text(Help.skill_type_key)
  end
  #--------------------------------------------------------------------------
  # ● コマンド［スキル］
  #--------------------------------------------------------------------------
  def command_skill
    @actor.set_last_stype(@command_window.current_ext)
    @item_window.activate
    @item_window.select_last
    @key_help_window.hide
  end
  #--------------------------------------------------------------------------
  # ● アイテム［決定］
  #--------------------------------------------------------------------------
  def on_item_ok
    @actor.set_last_skill(@command_window.current_ext, item)
    determine_item
  end
  #--------------------------------------------------------------------------
  # ● アイテム［キャンセル］
  #--------------------------------------------------------------------------
  def on_item_cancel
    @item_window.unselect
    @command_window.activate
    @key_help_window.show
  end
end

#==============================================================================
# ■ Scene_Battle
#==============================================================================
class Scene_Battle < Scene_Base
  #--------------------------------------------------------------------------
  # ○ 開始後処理
  #--------------------------------------------------------------------------
  def post_start
    super
    unless $game_party.in_battle
      battle_start
    else
      start_party_command_selection
    end
  end
  #--------------------------------------------------------------------------
  # ○ 全ウィンドウの作成
  #--------------------------------------------------------------------------
  def create_all_windows
    create_message_window
    create_scroll_text_window
    create_log_window
    create_status_window
    create_bench_window #
    create_info_viewport
    create_party_command_window
    create_actor_command_window
    create_help_window
    create_skill_window
    create_item_window
    create_actor_window
    create_enemy_window
    create_simple_status_window #
    create_skillname_window #
  end
  #--------------------------------------------------------------------------
  # ○ ログウィンドウの作成
  #--------------------------------------------------------------------------
  def create_log_window
    @log_window = Window_BattleLog.new
    @log_window.method_wait = method(:wait)
    @log_window.method_wait_for_effect = method(:wait_for_effect)
    @log_window.method_process_down_word = method(:process_down_word)
  end
  #--------------------------------------------------------------------------
  # ○ ステータスウィンドウの作成
  #--------------------------------------------------------------------------
  def create_status_window
    @status_window = Window_BattleStatus.new
    @status_window.x = 200
    @status_window.set_handler(:ok,  method(:battle_member_ok))
    @status_window.set_handler(:cancel,  method(:battle_member_cancel))
  end
  #--------------------------------------------------------------------------
  # ○ 控えメンバーウィンドウの作成
  #--------------------------------------------------------------------------
  def create_bench_window
    @bench_window  = Window_BenchStatus.new
    @bench_window.x = 200
    @bench_window.y = @status_window.height
    @bench_window.set_handler(:ok,  method(:bench_member_ok))
    @bench_window.set_handler(:cancel,  method(:bench_member_cancel))
  end
  #--------------------------------------------------------------------------
  # ○ 情報表示ビューポートの作成
  #--------------------------------------------------------------------------
  def create_info_viewport
    @info_viewport = Viewport.new
    @info_viewport.rect.y = Graphics.height - @status_window.height
    @info_viewport.rect.height = @status_window.height + @bench_window.height
    @info_viewport.z = 100
    @info_viewport.ox = 64
    @info_viewport.visible = false
    @status_window.viewport = @info_viewport
    @bench_window.viewport = @info_viewport
  end
  #--------------------------------------------------------------------------
  # ○ パーティコマンドウィンドウの作成
  #--------------------------------------------------------------------------
  def create_party_command_window
    @party_command_window = Window_PartyCommand.new
    @party_command_window.viewport = @info_viewport
    @party_command_window.set_handler(:fight,  method(:command_fight))
    @party_command_window.set_handler(:escape, method(:command_escape))
    @party_command_window.set_handler(:all_attack, method(:command_all_attack))
    @party_command_window.set_handler(:shift_change, method(:command_shift_change))
    @party_command_window.set_handler(:giveup, method(:command_giveup))
    @party_command_window.set_handler(:library, method(:command_library))
    @party_command_window.set_handler(:config, method(:command_config))
    @party_command_window.unselect    
  end
  #--------------------------------------------------------------------------
  # ○ アクターコマンドウィンドウの作成
  #--------------------------------------------------------------------------
  def create_actor_command_window
    @actor_command_window = Window_ActorCommand.new
    @actor_command_window.viewport = @info_viewport
    @actor_command_window.set_handler(:attack, method(:command_attack))
    @actor_command_window.set_handler(:skill,  method(:command_skill))
    @actor_command_window.set_handler(:guard,  method(:command_guard))
    @actor_command_window.set_handler(:item,   method(:command_item))
    @actor_command_window.set_handler(:cancel, method(:prior_command))
    @actor_command_window.set_handler(:bind_resist, method(:command_bind_resist))
    @actor_command_window.set_handler(:mercy, method(:command_mercy))
    @actor_command_window.x = Graphics.width
  end
  #--------------------------------------------------------------------------
  # ● 簡易ステータスウィンドウの作成
  #--------------------------------------------------------------------------
  def create_simple_status_window
    @simple_status_window = Window_SimpleStatus.new($game_actors[NWConst::Actor::LUCA])
    @simple_status_window.openness = 0
  end
  #--------------------------------------------------------------------------
  # ● スキル名ウィンドウの作成
  #--------------------------------------------------------------------------
  def create_skillname_window
    @sname_window = Window_SkillName.new
  end
  #--------------------------------------------------------------------------
  # ○ ステータスウィンドウの情報を更新
  #--------------------------------------------------------------------------
  def refresh_status
    @status_window.refresh
    @bench_window.refresh
  end
  #--------------------------------------------------------------------------
  # ○ 情報表示ビューポートの更新
  #--------------------------------------------------------------------------
  def update_info_viewport
    if @party_command_window.active
      move_info_viewport(0)
      move_info_viewport2(360)
    elsif @actor_command_window.active
      move_info_viewport(200)
      move_info_viewport2(360)
    elsif @bench_window.open?
      move_info_viewport(0)
      move_info_viewport2(360 - @bench_window.height)
    elsif BattleManager.in_turn?
      move_info_viewport(100)
      move_info_viewport2(360)
    end
  end
  #--------------------------------------------------------------------------
  # ● 情報表示ビューポートの移動（絶対座標）
  #--------------------------------------------------------------------------
  def move_info_viewport2(y)
    pos_y = @info_viewport.rect.y
    @info_viewport.rect.y = [y, pos_y + 16].min if pos_y < y
    @info_viewport.rect.y = [y, pos_y - 16].max if pos_y > y
  end
  #--------------------------------------------------------------------------
  # ○ パーティコマンド選択の開始
  #--------------------------------------------------------------------------
  def start_party_command_selection
    unless scene_changing?
      refresh_status
      @info_viewport.visible = true
      @status_window.unselect
      @status_window.open
      if BattleManager.input_start
        @actor_command_window.close
        @party_command_window.setup
      else
        @party_command_window.deactivate
        turn_start
      end
    end
  end
  #--------------------------------------------------------------------------
  # ○ コマンド［逃げる］
  #--------------------------------------------------------------------------
  def command_escape
    @info_viewport.visible = false
    turn_start unless BattleManager.process_escape
  end
  #--------------------------------------------------------------------------
  # ● コマンド［入れ替え］
  #--------------------------------------------------------------------------
  def command_shift_change
    BattleManager.shift_change
    refresh_status
    @bench_window.open
    @status_window.activate.select(0)
  end
  #--------------------------------------------------------------------------
  # ● 戦闘参加メンバー：決定
  #--------------------------------------------------------------------------
  def battle_member_ok
    @bench_window.activate.select(0)
  end
  #--------------------------------------------------------------------------
  # ● 戦闘参加メンバー：キャンセル
  #--------------------------------------------------------------------------
  def battle_member_cancel
    @status_window.unselect
    @bench_window.close
    BattleManager.init_phase
    refresh_status
    start_party_command_selection
  end
  #--------------------------------------------------------------------------
  # ● 控えメンバー：決定
  #--------------------------------------------------------------------------
  def bench_member_ok
    $game_party.sort_hidden_last
    $game_party.swap_order(@status_window.member_index, @bench_window.member_index)
    refresh_status
    bench_member_cancel
  end
  #--------------------------------------------------------------------------
  # ● 控えメンバー：キャンセル
  #--------------------------------------------------------------------------
  def bench_member_cancel
    @status_window.activate
    @bench_window.unselect
  end  
  #--------------------------------------------------------------------------
  # ● コマンド［降参］
  #--------------------------------------------------------------------------
  def command_giveup
    @info_viewport.visible = false
    BattleManager.giveup
    $game_temp.reserve_common_event(NWConst::Common::GIVEUP_START)
    process_event
    turn_start
  end
  #--------------------------------------------------------------------------
  # ● アクターコマンド選択の開始
  #--------------------------------------------------------------------------
  def start_actor_command_selection
    @status_window.select(BattleManager.actor.index)
    @party_command_window.close
    @actor_command_window.setup(BattleManager.actor)
    @actor_command_window.select_last
  end
  #--------------------------------------------------------------------------
  # ● スキル［決定］
  #--------------------------------------------------------------------------
  def on_skill_ok
    @skill = @skill_window.item
    BattleManager.actor.input.set_skill(@skill.id)
    BattleManager.actor.set_last_skill(@actor_command_window.current_ext, @skill)
    if !@skill.need_selection?
      @skill_window.hide
      next_command
    elsif @skill.for_opponent?
      select_enemy_selection
    else
      select_actor_selection
    end
  end
  #--------------------------------------------------------------------------
  # ○ 戦闘開始
  #--------------------------------------------------------------------------
  def battle_start
    BattleManager.battle_start
    process_event
    BattleManager.set_battle_start_skill
    process_action while BattleManager.gm_exist?
    start_party_command_selection
  end
  #--------------------------------------------------------------------------
  # ○ ターン開始
  #--------------------------------------------------------------------------
  def turn_start
    @info_viewport.visible = false
    @party_command_window.close
    @actor_command_window.close
    @status_window.unselect
    @subject =  nil
    BattleManager.turn_start
    @log_window.wait
    @log_window.clear
    BattleManager.set_turn_start_skill
    process_action while BattleManager.gm_exist?
  end
  #--------------------------------------------------------------------------
  # ○ コマンド［攻撃］
  #--------------------------------------------------------------------------
  def command_attack
    BattleManager.actor.input.set_attack
    if BattleManager.actor.bind_target?
      BattleManager.actor.input.target_index = BattleManager.bind_user_index
      next_command
    elsif BattleManager.actor.input.item.need_selection?
      select_enemy_selection
    else
      next_command
    end
  end
  #--------------------------------------------------------------------------
  # ○ コマンド［アイテム］
  #--------------------------------------------------------------------------
  def command_item
    @item_window.actor = BattleManager.actor
    @item_window.refresh
    @item_window.show.activate
  end  
  #--------------------------------------------------------------------------
  # ○ 敵キャラ選択の開始
  #--------------------------------------------------------------------------
  def select_enemy_selection
    skill = @skill_window.visible ? @skill_window.item : nil
    @enemy_window.friend_draw = skill ? skill.friend_draw? : false
    @enemy_window.refresh
    @enemy_window.show.activate
  end
  #--------------------------------------------------------------------------
  # ● コマンド［もがく］
  #--------------------------------------------------------------------------
  def command_bind_resist
    BattleManager.actor.input.target_index = BattleManager.bind_user_index
    BattleManager.actor.input.set_bind_resist
    next_command
  end
  #--------------------------------------------------------------------------
  # ● コマンド［なすがまま］
  #--------------------------------------------------------------------------
  def command_mercy
    BattleManager.actor.input.set_mercy
    next_command
  end
  #--------------------------------------------------------------------------
  # ○ 戦闘行動の処理
  #--------------------------------------------------------------------------
  def process_action
    return if scene_changing?
    if !@subject || !@subject.current_action
      @subject = BattleManager.next_subject
    end
    return turn_end unless @subject
    if @subject.current_action
      @subject.current_action.prepare
      execute_action
      @subject.remove_current_action
    end
    process_action_end unless @subject.current_action
  end
  #--------------------------------------------------------------------------
  # ○ スキル／アイテムの使用
  #--------------------------------------------------------------------------
  def use_item
    base_item = @subject.current_action.item
    if base_item.nil?
      @log_window.display_target_empty(@subject)
      return true
    end
    use_items = @subject.current_action.use_items(true)
    display_item = use_items.size == 1 ? use_items[0] : base_item
    # 使用直前失敗判定
    if [:slot, :poker, :random].include?(base_item.use_items_mode)
      return true if display_item == :unusable
    end
    # 【スキル名表示】
    process_skill_word(display_item, @subject.current_action)
    display_skill_name(display_item)
    # 使用直前失敗判定
    if [:multi, :normal].include?(base_item.use_items_mode)
      return true if process_skill_unusable(base_item, true)
    end
    # アイテムの使用
    @subject.use_item(base_item)
    refresh_status    
    # 使用直後メッセージ
    display_use_item(@subject.current_action, display_item)
    # 効果の発動
    process_invoke_item(@subject.current_action, use_items)
    close_skill_name
    apply_user_feedback(@subject.master_observer, base_item)
  end
  #--------------------------------------------------------------------------
  # ○ スキル／アイテムの対象への効果適用
  #--------------------------------------------------------------------------
  def process_invoke_item(base_action, first_use_items)
    enable_counter = !BattleManager.giveup?
    base_item = base_action.item
    @subject.invoke_repeats(base_item).times do |repeat_time|
      break unless @subject.current_action
      use_items = (repeat_time == 0 ? first_use_items : base_action.use_items(false))
      display_item = use_items.size == 1 ? use_items[0] : base_item
      if repeat_time != 0
        process_skill_word(display_item, base_action)
      end
      use_items.each_with_index do |item, item_time|
				
        break unless @subject.current_action
        if repeat_time != 0 or item_time != 0 # 反撃スキルから戻す
          display_skill_name(display_item)
          display_use_item(base_action, display_item)
        end
        enable_invoke = true
        action = Game_Action.new(@subject)
        action.send(item.is_skill? ? :set_skill : :set_item, item.id)
        action.target_index = base_action.target_index
        targets = action.make_targets.compact
        targets.delete(@subject) if item.target_reject_user?
        show_animation(targets, item.animation_id)
        item.add_anime.each {|anime_id| show_animation(targets, anime_id) }
        if enable_counter                     # 拡張反撃
          targets.uniq.each {|target|
            if target.alive? && rand < target.item_cnt_ex(@subject, item)
              invoke_counter_attack(target, item)
              enable_invoke = false           # スキル発動と通常反撃を無効
              break                           # 以降の先手反撃を無効
            end
          }
        end
        if enable_invoke                      # 効果の発動
          $game_temp.normal_invoke_start
          targets.each {|target| item.repeats.times { invoke_item(target, item) } }
          @subject.item_one_use_apply(item, targets, self)
          $game_temp.normal_invoke_end
        end
        if enable_invoke and enable_counter   # 通常反撃
          targets.uniq.each {|target|
            if target.alive? && rand < target.item_cnt(@subject, item)
              invoke_counter_attack(target, item)
            end
          }
        end
        enable_counter = false  # 反撃できるのは最初の回の最初のスキルのみ
        @log_window.clear
      end # use_items.each
      @log_window.clear  # 2行上のclearはbreakによって無視される可能性がある
      break if $game_troop.all_dead?
    end # invoke_repeats.times
  end
  #--------------------------------------------------------------------------
  # ○ スキル／アイテムの使用メッセージ表示
  #--------------------------------------------------------------------------
  def display_use_item(action, display_item)
    display_action = Game_Action.new(@subject)
    display_action.send(display_item.is_skill? ? :set_skill : :set_item, display_item.id)
    display_action.target_index = action.target_index
    display_targets = display_action.make_targets.compact
    @log_window.display_use_item(@subject, display_targets, display_item)
  end
  #--------------------------------------------------------------------------
  # ○ スキルの決定処理
  #--------------------------------------------------------------------------
  def process_use_items(mode, base_action, item, can_failure)
    close_skill_name
    process_skill_word(item, base_action)
    if can_failure and process_skill_unusable(item, false)
      display_skill_name(item)
      process_skill_unusable(item, true)
      wait(40)
      return :unusable
    end
    display_use_item(base_action, item)
    case mode
    when :slot  ; result_skill_id = process_slot
    when :poker ; result_skill_id = process_poker
    when :random; result_skill_id = item.random_invoke.sample; wait(40)
    end
    @log_window.clear
    return $data_skills[result_skill_id]
  end
  #--------------------------------------------------------------------------
  # ○ スキル発動不可能の処理
  #--------------------------------------------------------------------------
  def process_skill_unusable(base_item, display_flag)
    if @subject.skill_unusable?(base_item)
      display_skill_unusable(base_item) if display_flag
      return true
    elsif @subject.eternal_bind_resist?(base_item)
      display_eternal_bind_resist if display_flag
      return true
    end
    return false
  end
  #--------------------------------------------------------------------------
  # ● 対象に関係なく適用される使用効果の適用
  #--------------------------------------------------------------------------
  def item_user_effect_apply(user, item, effect)
    user = user.master_observer
    method_table = {
      NWUsableEffect::EFFECT_GET_ITEM     => :item_user_effect_get_item,
      NWUsableEffect::EFFECT_SELF_ENCHANT => :item_user_effect_self_enchant,
    }
    method_name = method_table[effect.code]
    send(method_name, user, item, effect) if method_name
  end
  #--------------------------------------------------------------------------
  # ● 使用効果［アイテム獲得］
  #--------------------------------------------------------------------------
  def item_user_effect_get_item(user, item, effect)
    return unless user.actor?
    effect.data_id.times{|i|
      $game_party.gain_item($data_items[effect.value1[i]], effect.value2[i])
    }
  end
  #--------------------------------------------------------------------------
  # ● 使用効果［自己ステート付与］
  #--------------------------------------------------------------------------
  def item_user_effect_self_enchant(user, item, effect)
    chance = effect.value1
    chance *= user.state_rate(effect.data_id) unless effect.value2
    if rand < chance
      user.result.removed_states.delete(effect.data_id)
      user.add_state(effect.data_id)
      if user.state_addable?(effect.data_id)
        @log_window.display_user_self_enchant(user, effect.data_id)
      end
    end
  end
  #--------------------------------------------------------------------------
  # ● スキル使用失敗の表示
  #--------------------------------------------------------------------------
  def display_skill_unusable(item)
    @log_window.display_unusable(@subject, item)
    close_skill_name    
  end
  #--------------------------------------------------------------------------
  # ● 永久拘束抵抗の表示
  #--------------------------------------------------------------------------
  def display_eternal_bind_resist
    bind_user = $game_troop.members[@subject.current_action.target_index]
    @log_window.display_eternal_bind_resist(bind_user)
    close_skill_name    
  end  
  #--------------------------------------------------------------------------
  # ○ スキル／アイテムの発動
  #--------------------------------------------------------------------------
  def invoke_item(target, item)
    return unless @subject.alive?
    if target.alive? && rand < target.item_mrf(@subject, item)
      invoke_magic_reflection(target, item)
    else
      apply_item_effects(apply_substitute(target, item), item)
    end
    @subject.last_target_index = target.index
  end
  #--------------------------------------------------------------------------
  # ● 使用者のフィードバックの適用
  #--------------------------------------------------------------------------
  def apply_user_feedback(user, item)
    if item.pay_life?
      if user.own_crush_resist?
        user.hp = 1
        @log_window.display_pay_life_failure(user)
      else
        user.add_state(user.death_state_id)
        @log_window.display_pay_life(user)
      end
    end
  end
	#--------------------------------------------------------------------------
	# ○ スキル／アイテムの効果を適用
	#--------------------------------------------------------------------------
	def apply_item_effects(target, item , is_cnt =false , ref= nil)
		target = target.observer if target.is_a?(Game_Master)
		target.item_apply(@subject, item ,is_cnt , ref )
		refresh_status
		@log_window.display_action_results(target, item, @subject)
	end
  #--------------------------------------------------------------------------
  # ● 被ダメージ用セリフ処理
  #--------------------------------------------------------------------------  
  def process_down_word(target, item)
    return if $game_system.conf[:bt_skip] == true
    return unless target.down_word_hash
    abs_wait_short
    if target.result.added_state_objects.any?{|state| state.death?}
      if target.result.predation
        target.predation_word.execute if target.predation_word        
      elsif target.result.pleasure
        target.orgasm_word.execute if target.orgasm_word
        process_luca_orgasm if target.luca?
      else
        target.dead_word.execute if target.dead_word        
      end
      target.premortal_change
    elsif target.result.added_states.include?(NWConst::State::INCONTINENCE)
      target.incontinence_word.execute if target.incontinence_word
    end
    wait_for_message
  end
  #--------------------------------------------------------------------------
  # ● ルカの射精演出処理
  #--------------------------------------------------------------------------  
  def process_luca_orgasm
    wait_for_message
    $game_troop.screen.pictures[10].show("sys_white", 0, 0, 0, 100, 100, 0, 0)
    $game_troop.screen.pictures[10].move(0, 0, 0, 100, 100, 255, 0, 20)
    wait(20)
    RPG::SE.new("mon_syasei", 100, 100).play
    $game_troop.screen.pictures[10].move(0, 0, 0, 100, 100, 0, 0, 25)
    wait(25)
    $game_troop.screen.pictures[10].move(0, 0, 0, 100, 100, 255, 0, 20)
    wait(20)
    $game_troop.screen.pictures[10].move(0, 0, 0, 100, 100, 0, 0, 25)
    wait(25)
    $game_troop.screen.pictures[10].move(0, 0, 0, 100, 100, 255, 0, 6)
    wait(6)
    $game_troop.screen.pictures[10].move(0, 0, 0, 100, 100, 0, 0, 60)
    wait(60)
    $game_troop.screen.pictures[10].erase
  end  
  #--------------------------------------------------------------------------
  # ● スキル用セリフ処理
  #--------------------------------------------------------------------------  
  def process_skill_word(item, action = nil)
    return if action and action.symbol == :event_interrupt
    return if $game_system.conf[:bt_skip] == true
    return unless item.is_skill?
    return unless @subject.exist_skill_word?(item.id)
    word = @subject.skill_word(item.id)
    word.execute
    wait_for_message
    return unless @subject.exist_cutin?(item.id)
    @subject.cutin(item.id).execute(method(:wait))
  end
  #--------------------------------------------------------------------------
  # ● スキル名の表示
  #--------------------------------------------------------------------------      
  def display_skill_name(item, action = nil)
    return unless item.is_skill? && item.visible?
    $game_party.display_skill_name = item.name
  end
  #--------------------------------------------------------------------------
  # ● スキル名を閉じる
  #--------------------------------------------------------------------------      
  def close_skill_name
    $game_party.display_skill_name = nil
    $game_troop.screen.pictures.each{|pic| pic.erase}
  end
  #--------------------------------------------------------------------------
  # ○ 反撃の発動
  #--------------------------------------------------------------------------
  def invoke_counter_attack(target, item)
    @log_window.clear
    @subject, target = target, @subject
    base_item = $data_skills[@subject.counter_skill ? @subject.counter_skill : @subject.attack_skill_id]
    @subject.skill_interrupt(base_item.id)
    @subject.invoke_repeats(base_item).times do |repeat_time|
      use_items = @subject.current_action.use_items(false)
      display_item = use_items.size == 1 ? use_items[0] : base_item
      process_skill_word(display_item)
      display_skill_name(display_item)
      @log_window.display_counter(@subject, display_item)
      use_items.each do |attack_skill|
        show_animation([target], attack_skill.animation_id)
        apply_item_effects(apply_substitute(target, attack_skill), attack_skill,true)
      end
      @log_window.clear
    end
    refresh_status
    @subject.remove_current_action
    @subject, target = target, @subject
  end
  #--------------------------------------------------------------------------
  # ● メンバー入れ替えでの全滅防止
  #--------------------------------------------------------------------------
  def no_change_all_dead_on_bench?
    status_index = @status_window.index
    bench_index  = @bench_window.index
    return ($game_party.alive_members.size == 1 &&
            $game_party.battle_members[status_index].alive? &&
            $game_party.bench_members[bench_index].dead?)
  end
  #--------------------------------------------------------------------------
  # ● 全滅時の死亡時スキルによるコモンイベントの処理
  #--------------------------------------------------------------------------
  def process_common_event_on_defeat
    while !scene_changing?
      $game_troop.interpreter.update
      $game_troop.interpreter.setup_reserved_common_event
      wait_for_message
      wait_for_effect if $game_troop.all_dead?
      process_forced_action
      break unless $game_troop.interpreter.running?
      update_for_wait
    end
  end
  #--------------------------------------------------------------------------
  # ● アニメと崩壊エフェクトのスキップ
  #--------------------------------------------------------------------------
  def battle_show_skip?
    Input.press?(:X)
  end
  #--------------------------------------------------------------------------
  # ● アニメーションの表示
  #--------------------------------------------------------------------------
  def show_animation(targets, animation_id)
    return if battle_show_skip?
    if animation_id < 0
      show_attack_animation(targets)
    else
      show_normal_animation(targets, animation_id)
    end
    @log_window.wait
    wait_for_animation
  end
end


