// EVENT 0079
Name "Skill: Play 391-400"

ChangeVariable(11,11,0,2,1,5)
If(1,100,0,391,0)
 If(1,11,0,1,0)
  ShowMessageFace("mefist_fc2",0,0,2,1)
  ShowMessage("【メフィスト】")
  ShowMessage("いいですか、戦いの心構えというのは……")
  ShowMessageFace("",0,0,2,2)
  ShowMessage("メフィストは説教を始めた！")
  ShowMessage("しかし誰も聞いていない……")
  EndEventProcessing()
  0()
 EndIf()
 If(1,11,0,2,0)
  ShowMessageFace("mefist_fc2",1,0,2,3)
  ShowMessage("【メフィスト】")
  ShowMessage("私が編み出した魔法です……スーパーファイア！")
  355("interrupt_skill(3306)")
  EndEventProcessing()
  0()
 EndIf()
 If(1,11,0,3,0)
  ShowMessageFace("mefist_fc2",2,0,2,4)
  ShowMessage("【メフィスト】")
  ShowMessage("まったく、生徒は口答えばかり……")
  ShowMessageFace("",0,0,2,5)
  ShowMessage("メフィストは一人で愚痴を言っている……")
  EndEventProcessing()
  0()
 EndIf()
 If(1,11,0,4,0)
  ShowMessageFace("mefist_fc2",0,0,2,6)
  ShowMessage("【メフィスト】")
  ShowMessage("これをどうぞ、精が付きますよ。")
  ShowMessageFace("",0,0,2,7)
  ShowMessage("メフィストからの差し入れだ！")
  250(bytes(0x04,0x08,0x6f,0x3a,0x0c,0x52,0x50,0x47,0x3a,0x3a,0x53,0x45,0x08,0x3a,0x0a,0x40,0x6e,0x61,0x6d,0x65,0x49,0x22,0x0a,0x49,0x74,0x65,0x6d,0x31,0x06,0x3a,0x06,0x45,0x54,0x3a,0x0b,0x40,0x70,0x69,0x74,0x63,0x68,0x69,0x69,0x3a,0x0c,0x40,0x76,0x6f,0x6c,0x75,0x6d,0x65,0x69,0x55))
  ChangeInventory_Item(328,0,0,1)
  ShowMessageFace("",0,0,2,8)
  ShowMessage("「うなぎ」を手に入れた！")
  EndEventProcessing()
  0()
 EndIf()
 If(1,11,0,5,0)
  ShowMessageFace("mefist_fc2",0,0,2,9)
  ShowMessage("【メフィスト】")
  ShowMessage("私が編み出した究極魔法を使用します……")
  ShowMessage("ウルトラメフィ！")
  ShowMessageFace("",0,0,2,10)
  ShowMessage("メフィストはウルトラメフィを唱えた！")
  ShowMessage("しかし何も起きなかった……")
  EndEventProcessing()
  0()
 EndIf()
 0()
EndIf()
0()
